SH2	PCC	spearman	AUC	update	activation	data_encoding	dropout_dense	dropout_cnn	learning_rate	hidden_nodes	n_filters	filter_sizes	separate
VAV2	0.209678863517	0.291277832714	0.896669238683	adam	rectify	blosum	0.0	0.4	0.0001	400	350	3 5 7	no
CRKL	0.304550197618	0.31472449085	0.797074678343	adam	rectify	blosum	0.0	0.4	0.0001	400	350	3 5 7	no
SRC	0.21896198924	0.335861887529	0.736126918434	adam	rectify	blosum	0.0	0.4	0.0001	400	350	3 5 7	no
SH2D1B	0.294248170632	0.333702967703	0.712922338217	adam	rectify	blosum	0.0	0.4	0.0001	400	350	3 5 7	no
SH2D1A	0.18639732581	0.248278979673	0.667251360138	adam	rectify	blosum	0.0	0.4	0.0001	400	350	3 5 7	no
SHIP2	0.220527066665	0.358495057497	0.705972941854	adam	rectify	blosum	0.0	0.4	0.0001	400	350	3 5 7	no
PIK3R1_1	0.220178521856	0.287471821777	0.680743039046	adam	rectify	blosum	0.0	0.4	0.0001	400	350	3 5 7	no
SH2D3A	0.0902121469795	0.0784256305184	0.885593220339	adam	rectify	blosum	0.0	0.4	0.0001	400	350	3 5 7	no
SH3BP2	0.111070058922	0.180531685328	0.857014388489	adam	rectify	blosum	0.0	0.4	0.0001	400	350	3 5 7	no
SH2D3C	0.232800450915	0.377229929961	0.743733224148	adam	rectify	blosum	0.0	0.4	0.0001	400	350	3 5 7	no
ABL1	0.310472064965	0.32271370355	0.708856501754	adam	rectify	blosum	0.0	0.4	0.0001	400	350	3 5 7	no
CRK	0.274357978848	0.324635220633	0.800786732456	adam	rectify	blosum	0.0	0.4	0.0001	400	350	3 5 7	no
HSH2D	0.146326476233	0.212158894892	0.737988490939	adam	rectify	blosum	0.0	0.4	0.0001	400	350	3 5 7	no
ABL2	0.278917620387	0.278225423198	0.644385823626	adam	rectify	blosum	0.0	0.4	0.0001	400	350	3 5 7	no
TXK	0.17351231435	0.235342443345	0.74408131755	adam	rectify	blosum	0.0	0.4	0.0001	400	350	3 5 7	no
PTPN11_1	0.18403758484	0.284209518965	0.723438976209	adam	rectify	blosum	0.0	0.4	0.0001	400	350	3 5 7	no
PTPN11_2	0.129779601172	0.10508991928	0.732064798149	adam	rectify	blosum	0.0	0.4	0.0001	400	350	3 5 7	no
FYN	0.320154211792	0.35573028434	0.763269098318	adam	rectify	blosum	0.0	0.4	0.0001	400	350	3 5 7	no
SYK_2	0.135578719639	0.196876716398	0.741509920124	adam	rectify	blosum	0.0	0.4	0.0001	400	350	3 5 7	no
SYK_1	0.140330636911	0.112435809664	0.734503600823	adam	rectify	blosum	0.0	0.4	0.0001	400	350	3 5 7	no
SRMS	0.222032331078	0.362593959043	0.694718345767	adam	rectify	blosum	0.0	0.4	0.0001	400	350	3 5 7	no
BKS	0.0544935560878	0.0950103052652	0.588264517554	adam	rectify	blosum	0.0	0.4	0.0001	400	350	3 5 7	no
TNS3	0.166406409028	0.236501459954	0.726375613537	adam	rectify	blosum	0.0	0.4	0.0001	400	350	3 5 7	no
LYN	0.257013082028	0.366829679491	0.729757038914	adam	rectify	blosum	0.0	0.4	0.0001	400	350	3 5 7	no
FGR	0.23949449474	0.332345822286	0.72849120869	adam	rectify	blosum	0.0	0.4	0.0001	400	350	3 5 7	no
TNS4	0.222648451625	0.311451425457	0.920380364945	adam	rectify	blosum	0.0	0.4	0.0001	400	350	3 5 7	no
SHC4	0.130451628358	0.132821119981	0.628148544837	adam	rectify	blosum	0.0	0.4	0.0001	400	350	3 5 7	no
CBLB	0.0952800366956	0.109490883267	0.588356517259	adam	rectify	blosum	0.0	0.4	0.0001	400	350	3 5 7	no
SHC1	0.154538109219	0.262331760881	0.591571508727	adam	rectify	blosum	0.0	0.4	0.0001	400	350	3 5 7	no
CSK	0.186477956404	0.30174240251	0.754901452282	adam	rectify	blosum	0.0	0.4	0.0001	400	350	3 5 7	no
SHC3	0.14463490094	0.203870131841	0.643687778922	adam	rectify	blosum	0.0	0.4	0.0001	400	350	3 5 7	no
FRK	0.330229886251	0.335330678177	0.721237657759	adam	rectify	blosum	0.0	0.4	0.0001	400	350	3 5 7	no
SH2D2A	0.194271979483	0.231501280325	0.724266072092	adam	rectify	blosum	0.0	0.4	0.0001	400	350	3 5 7	no
SHD	0.196169071166	0.191766263663	0.647994775923	adam	rectify	blosum	0.0	0.4	0.0001	400	350	3 5 7	no
FES	0.177192672135	0.152672239174	0.822713889604	adam	rectify	blosum	0.0	0.4	0.0001	400	350	3 5 7	no
BLK	0.34200175506	0.347880340803	0.768449108016	adam	rectify	blosum	0.0	0.4	0.0001	400	350	3 5 7	no
SHIP1	0.109223023064	0.244897421409	0.705698371894	adam	rectify	blosum	0.0	0.4	0.0001	400	350	3 5 7	no
FER	0.184021413558	0.193556748503	0.89685192668	adam	rectify	blosum	0.0	0.4	0.0001	400	350	3 5 7	no
HCK	0.334088270307	0.348501532312	0.75528440145	adam	rectify	blosum	0.0	0.4	0.0001	400	350	3 5 7	no
MIST	0.091388196022	0.0859593040647	0.684790059983	adam	rectify	blosum	0.0	0.4	0.0001	400	350	3 5 7	no
TNS1	0.19206402036	0.273375631119	0.686750332654	adam	rectify	blosum	0.0	0.4	0.0001	400	350	3 5 7	no
BCAR3	0.100715932286	0.103215755748	0.642799839551	adam	rectify	blosum	0.0	0.4	0.0001	400	350	3 5 7	no
SH2B	0.1903227506	0.224197999468	0.712330552659	adam	rectify	blosum	0.0	0.4	0.0001	400	350	3 5 7	no
SOCS7	0.169040242357	0.276433672151	0.64082839377	adam	rectify	blosum	0.0	0.4	0.0001	400	350	3 5 7	no
ITK	0.253529147702	0.230122330908	0.796299279326	adam	rectify	blosum	0.0	0.4	0.0001	400	350	3 5 7	no
NCK2	0.308585186017	0.340644277232	0.82535035958	adam	rectify	blosum	0.0	0.4	0.0001	400	350	3 5 7	no
BMX	0.196848701985	0.214167765307	0.855379642214	adam	rectify	blosum	0.0	0.4	0.0001	400	350	3 5 7	no
VAV1	0.205768722213	0.180932305286	0.809674619589	adam	rectify	blosum	0.0	0.4	0.0001	400	350	3 5 7	no
APS	0.186910334254	0.149750008998	0.684938123838	adam	rectify	blosum	0.0	0.4	0.0001	400	350	3 5 7	no
DAPP1	0.161182703966	0.134329566328	0.705268568491	adam	rectify	blosum	0.0	0.4	0.0001	400	350	3 5 7	no
GRB14	0.254485568732	0.286875148298	0.702809385736	adam	rectify	blosum	0.0	0.4	0.0001	400	350	3 5 7	no
CBL	0.086677691381	0.11166301491	0.567285405812	adam	rectify	blosum	0.0	0.4	0.0001	400	350	3 5 7	no
MATK	0.154734739357	0.260303183192	0.657447057447	adam	rectify	blosum	0.0	0.4	0.0001	400	350	3 5 7	no
TENC1	0.235790063063	0.229434087127	0.804873329906	adam	rectify	blosum	0.0	0.4	0.0001	400	350	3 5 7	no
GRB2	0.266057138151	0.307503817934	0.796408184447	adam	rectify	blosum	0.0	0.4	0.0001	400	350	3 5 7	no
BRK	0.325453642924	0.32092002066	0.795570491898	adam	rectify	blosum	0.0	0.4	0.0001	400	350	3 5 7	no
GRB10	0.103781936919	0.0761117829805	0.73862398225	adam	rectify	blosum	0.0	0.4	0.0001	400	350	3 5 7	no
BRDG1	0.0973252627958	0.123932272116	0.640107161526	adam	rectify	blosum	0.0	0.4	0.0001	400	350	3 5 7	no
YES	0.252616544495	0.362259633093	0.681221758777	adam	rectify	blosum	0.0	0.4	0.0001	400	350	3 5 7	no
SLP76	0.145357268959	0.139021223502	0.808770576132	adam	rectify	blosum	0.0	0.4	0.0001	400	350	3 5 7	no
BTK	0.155347253312	0.132189063988	0.749559222647	adam	rectify	blosum	0.0	0.4	0.0001	400	350	3 5 7	no
GADS	0.348718109905	0.250655122271	0.82438235062	adam	rectify	blosum	0.0	0.4	0.0001	400	350	3 5 7	no
