SH2	PCC	spearman	AUC	update	activation	data_encoding	dropout_dense	dropout_cnn	learning_rate	hidden_nodes	n_filters	filter_sizes	separate
VAV2	0.292794612056	0.447391392478	0.948398919753	adam	rectify	blosum	0.4	0.0	0.0001	400	250	3 5 7	yes
CRKL	0.502650642297	0.425443417018	0.895957674164	adam	rectify	blosum	0.4	0.0	0.0001	400	250	3 5 7	yes
SRC	0.318794685127	0.484757115891	0.828815312985	adam	rectify	blosum	0.4	0.0	0.0001	400	250	3 5 7	yes
SH2D1B	0.574841742006	0.593280330275	0.868946925386	adam	rectify	blosum	0.4	0.0	0.0001	400	250	3 5 7	yes
SH2D1A	0.395152422589	0.430382451194	0.811119128185	adam	rectify	blosum	0.4	0.0	0.0001	400	250	3 5 7	yes
SHIP2	0.327387097241	0.500102171111	0.800561312608	adam	rectify	blosum	0.4	0.0	0.0001	400	250	3 5 7	yes
PIK3R1_1	0.336685715358	0.435035005185	0.74134329962	adam	rectify	blosum	0.4	0.0	0.0001	400	250	3 5 7	yes
SH2D3A	0.176389033707	0.152831594165	0.744863893169	adam	rectify	blosum	0.4	0.0	0.0001	400	250	3 5 7	yes
SH3BP2	0.176439418661	0.239643889242	0.922147995889	adam	rectify	blosum	0.4	0.0	0.0001	400	250	3 5 7	yes
SH2D3C	0.310149680466	0.485984613926	0.867203493927	adam	rectify	blosum	0.4	0.0	0.0001	400	250	3 5 7	yes
ABL1	0.492031045544	0.505923466171	0.823489532275	adam	rectify	blosum	0.4	0.0	0.0001	400	250	3 5 7	yes
CRK	0.465209518501	0.439669789265	0.900548245614	adam	rectify	blosum	0.4	0.0	0.0001	400	250	3 5 7	yes
HSH2D	0.234943526055	0.330818073146	0.757244696384	adam	rectify	blosum	0.4	0.0	0.0001	400	250	3 5 7	yes
ABL2	0.437250837642	0.449603827135	0.727867646593	adam	rectify	blosum	0.4	0.0	0.0001	400	250	3 5 7	yes
TXK	0.290352099482	0.36429072201	0.817858980957	adam	rectify	blosum	0.4	0.0	0.0001	400	250	3 5 7	yes
PTPN11_1	0.270294761936	0.413688180684	0.795293309285	adam	rectify	blosum	0.4	0.0	0.0001	400	250	3 5 7	yes
PTPN11_2	0.238544226735	0.205691091856	0.757998751056	adam	rectify	blosum	0.4	0.0	0.0001	400	250	3 5 7	yes
FYN	0.562557092101	0.542437847733	0.87882755553	adam	rectify	blosum	0.4	0.0	0.0001	400	250	3 5 7	yes
SYK_2	0.267709313436	0.293625718574	0.855518337198	adam	rectify	blosum	0.4	0.0	0.0001	400	250	3 5 7	yes
SYK_1	0.25986029379	0.194292579692	0.86696244856	adam	rectify	blosum	0.4	0.0	0.0001	400	250	3 5 7	yes
SRMS	0.336446661004	0.547276932029	0.820903835141	adam	rectify	blosum	0.4	0.0	0.0001	400	250	3 5 7	yes
BKS	0.144720164027	0.197504902086	0.818668580261	adam	rectify	blosum	0.4	0.0	0.0001	400	250	3 5 7	yes
TNS3	0.264065516605	0.386161332061	0.794513045725	adam	rectify	blosum	0.4	0.0	0.0001	400	250	3 5 7	yes
LYN	0.387564800256	0.536451775978	0.832117906733	adam	rectify	blosum	0.4	0.0	0.0001	400	250	3 5 7	yes
FGR	0.346569711988	0.50387542142	0.826961244592	adam	rectify	blosum	0.4	0.0	0.0001	400	250	3 5 7	yes
TNS4	0.300844661841	0.402868827531	0.933847340015	adam	rectify	blosum	0.4	0.0	0.0001	400	250	3 5 7	yes
SHC4	0.351640685746	0.289911706263	0.859303442163	adam	rectify	blosum	0.4	0.0	0.0001	400	250	3 5 7	yes
CBLB	0.172809127704	0.260158256319	0.671965849709	adam	rectify	blosum	0.4	0.0	0.0001	400	250	3 5 7	yes
SHC1	0.325545390607	0.496471866423	0.784905145353	adam	rectify	blosum	0.4	0.0	0.0001	400	250	3 5 7	yes
CSK	0.283650834576	0.402138026122	0.870059647303	adam	rectify	blosum	0.4	0.0	0.0001	400	250	3 5 7	yes
SHC3	0.296026735352	0.42172611415	0.687156711294	adam	rectify	blosum	0.4	0.0	0.0001	400	250	3 5 7	yes
FRK	0.511391485448	0.530838292544	0.848932584758	adam	rectify	blosum	0.4	0.0	0.0001	400	250	3 5 7	yes
SH2D2A	0.355223579666	0.389501694971	0.856758997227	adam	rectify	blosum	0.4	0.0	0.0001	400	250	3 5 7	yes
SHD	0.374649284079	0.340378937155	0.772755953895	adam	rectify	blosum	0.4	0.0	0.0001	400	250	3 5 7	yes
FES	0.376661894202	0.248664527158	0.95103335906	adam	rectify	blosum	0.4	0.0	0.0001	400	250	3 5 7	yes
BLK	0.494224879164	0.490725979855	0.856381353861	adam	rectify	blosum	0.4	0.0	0.0001	400	250	3 5 7	yes
SHIP1	0.197620209544	0.371748401417	0.82677806341	adam	rectify	blosum	0.4	0.0	0.0001	400	250	3 5 7	yes
FER	0.344671820781	0.340020508899	0.959666458509	adam	rectify	blosum	0.4	0.0	0.0001	400	250	3 5 7	yes
HCK	0.521240686354	0.543099765629	0.856934116077	adam	rectify	blosum	0.4	0.0	0.0001	400	250	3 5 7	yes
MIST	0.167210981394	0.113645206401	0.899314481577	adam	rectify	blosum	0.4	0.0	0.0001	400	250	3 5 7	yes
TNS1	0.354011174736	0.501194640088	0.799479241454	adam	rectify	blosum	0.4	0.0	0.0001	400	250	3 5 7	yes
BCAR3	0.242111951576	0.227517551711	0.76786430577	adam	rectify	blosum	0.4	0.0	0.0001	400	250	3 5 7	yes
SH2B	0.400971605511	0.425685805503	0.871102711157	adam	rectify	blosum	0.4	0.0	0.0001	400	250	3 5 7	yes
SOCS7	0.263478838476	0.365943979694	0.749531467922	adam	rectify	blosum	0.4	0.0	0.0001	400	250	3 5 7	yes
ITK	0.461161733566	0.359668585305	0.89108647388	adam	rectify	blosum	0.4	0.0	0.0001	400	250	3 5 7	yes
NCK2	0.428612896322	0.454008717059	0.889348607782	adam	rectify	blosum	0.4	0.0	0.0001	400	250	3 5 7	yes
BMX	0.312952414337	0.322011127216	0.869154758844	adam	rectify	blosum	0.4	0.0	0.0001	400	250	3 5 7	yes
VAV1	0.31017813626	0.300251727555	0.922505170631	adam	rectify	blosum	0.4	0.0	0.0001	400	250	3 5 7	yes
APS	0.35659886352	0.305319641945	0.827781221279	adam	rectify	blosum	0.4	0.0	0.0001	400	250	3 5 7	yes
DAPP1	0.226428342663	0.160854114185	0.754818812645	adam	rectify	blosum	0.4	0.0	0.0001	400	250	3 5 7	yes
GRB14	0.410705940703	0.393941526276	0.786878162488	adam	rectify	blosum	0.4	0.0	0.0001	400	250	3 5 7	yes
CBL	0.191984612419	0.229044005835	0.536302224687	adam	rectify	blosum	0.4	0.0	0.0001	400	250	3 5 7	yes
MATK	0.252479216556	0.428891237654	0.751655551656	adam	rectify	blosum	0.4	0.0	0.0001	400	250	3 5 7	yes
TENC1	0.401664821899	0.355649678495	0.867171909808	adam	rectify	blosum	0.4	0.0	0.0001	400	250	3 5 7	yes
GRB2	0.496255876638	0.430227981502	0.922918674475	adam	rectify	blosum	0.4	0.0	0.0001	400	250	3 5 7	yes
BRK	0.515452069882	0.458472570162	0.883320762777	adam	rectify	blosum	0.4	0.0	0.0001	400	250	3 5 7	yes
GRB10	0.306664313418	0.22810242955	0.913548208166	adam	rectify	blosum	0.4	0.0	0.0001	400	250	3 5 7	yes
BRDG1	0.375661920735	0.318650620799	0.895243073706	adam	rectify	blosum	0.4	0.0	0.0001	400	250	3 5 7	yes
YES	0.346386306645	0.505671577191	0.802906673618	adam	rectify	blosum	0.4	0.0	0.0001	400	250	3 5 7	yes
SLP76	0.287183109377	0.254155648085	0.916827417695	adam	rectify	blosum	0.4	0.0	0.0001	400	250	3 5 7	yes
BTK	0.237683187944	0.123323791194	0.813288694309	adam	rectify	blosum	0.4	0.0	0.0001	400	250	3 5 7	yes
GADS	0.580823438324	0.345815882457	0.925903123109	adam	rectify	blosum	0.4	0.0	0.0001	400	250	3 5 7	yes
