SH2	PCC	spearman	AUC	update	activation	data_encoding	dropout_dense	dropout_cnn	learning_rate	hidden_nodes	n_filters	filter_sizes	separate
VAV2	0.332288734263	0.4617931697	0.956340020576	adam	rectify	blosum	0.0	0.0	0.0001	300	250	3 5 7	yes
CRKL	0.518774113261	0.416992950858	0.913220959629	adam	rectify	blosum	0.0	0.0	0.0001	300	250	3 5 7	yes
SRC	0.316436151291	0.480464669719	0.837739265391	adam	rectify	blosum	0.0	0.0	0.0001	300	250	3 5 7	yes
SH2D1B	0.573043844907	0.588687031815	0.859635162214	adam	rectify	blosum	0.0	0.0	0.0001	300	250	3 5 7	yes
SH2D1A	0.410168901033	0.432442287318	0.816866540605	adam	rectify	blosum	0.0	0.0	0.0001	300	250	3 5 7	yes
SHIP2	0.323786482057	0.478602631063	0.81272308578	adam	rectify	blosum	0.0	0.0	0.0001	300	250	3 5 7	yes
PIK3R1_1	0.318247998653	0.432702454873	0.748912036104	adam	rectify	blosum	0.0	0.0	0.0001	300	250	3 5 7	yes
SH2D3A	0.224797610366	0.200307176907	0.747303543914	adam	rectify	blosum	0.0	0.0	0.0001	300	250	3 5 7	yes
SH3BP2	0.170195368873	0.239529613583	0.913155190134	adam	rectify	blosum	0.0	0.0	0.0001	300	250	3 5 7	yes
SH2D3C	0.309696710394	0.480081911995	0.891163580668	adam	rectify	blosum	0.0	0.0	0.0001	300	250	3 5 7	yes
ABL1	0.477452658336	0.497767657876	0.813295863015	adam	rectify	blosum	0.0	0.0	0.0001	300	250	3 5 7	yes
CRK	0.479537935247	0.440582211173	0.910098684211	adam	rectify	blosum	0.0	0.0	0.0001	300	250	3 5 7	yes
HSH2D	0.242791132061	0.317595010921	0.807025680666	adam	rectify	blosum	0.0	0.0	0.0001	300	250	3 5 7	yes
ABL2	0.448265665883	0.459509350963	0.730452740136	adam	rectify	blosum	0.0	0.0	0.0001	300	250	3 5 7	yes
TXK	0.291466278777	0.366083748061	0.833067421513	adam	rectify	blosum	0.0	0.0	0.0001	300	250	3 5 7	yes
PTPN11_1	0.294319723997	0.42871478941	0.819359271665	adam	rectify	blosum	0.0	0.0	0.0001	300	250	3 5 7	yes
PTPN11_2	0.243142306524	0.226158529066	0.800095507475	adam	rectify	blosum	0.0	0.0	0.0001	300	250	3 5 7	yes
FYN	0.561433482301	0.537797045786	0.869525914022	adam	rectify	blosum	0.0	0.0	0.0001	300	250	3 5 7	yes
SYK_2	0.26932182592	0.30992325215	0.842841192133	adam	rectify	blosum	0.0	0.0	0.0001	300	250	3 5 7	yes
SYK_1	0.245884693172	0.180262637452	0.81902649177	adam	rectify	blosum	0.0	0.0	0.0001	300	250	3 5 7	yes
SRMS	0.33030412035	0.542490191885	0.816816887487	adam	rectify	blosum	0.0	0.0	0.0001	300	250	3 5 7	yes
BKS	0.215195111213	0.231264002628	0.895709133731	adam	rectify	blosum	0.0	0.0	0.0001	300	250	3 5 7	yes
TNS3	0.281641889725	0.395251939358	0.818393180057	adam	rectify	blosum	0.0	0.0	0.0001	300	250	3 5 7	yes
LYN	0.383292195744	0.529978177316	0.83000592184	adam	rectify	blosum	0.0	0.0	0.0001	300	250	3 5 7	yes
FGR	0.314753472164	0.460803537161	0.806904170119	adam	rectify	blosum	0.0	0.0	0.0001	300	250	3 5 7	yes
TNS4	0.312972762451	0.414065383413	0.94921613981	adam	rectify	blosum	0.0	0.0	0.0001	300	250	3 5 7	yes
SHC4	0.346447331988	0.288172534511	0.865249667602	adam	rectify	blosum	0.0	0.0	0.0001	300	250	3 5 7	yes
CBLB	0.199196854327	0.295421762393	0.74703760948	adam	rectify	blosum	0.0	0.0	0.0001	300	250	3 5 7	yes
SHC1	0.333155678688	0.504124638153	0.794640826168	adam	rectify	blosum	0.0	0.0	0.0001	300	250	3 5 7	yes
CSK	0.337875249928	0.418146483734	0.885801348548	adam	rectify	blosum	0.0	0.0	0.0001	300	250	3 5 7	yes
SHC3	0.318509725998	0.4362017092	0.74770425678	adam	rectify	blosum	0.0	0.0	0.0001	300	250	3 5 7	yes
FRK	0.50877428822	0.527325361943	0.844843237551	adam	rectify	blosum	0.0	0.0	0.0001	300	250	3 5 7	yes
SH2D2A	0.36561165183	0.402807671012	0.8829145585	adam	rectify	blosum	0.0	0.0	0.0001	300	250	3 5 7	yes
SHD	0.397274541604	0.354746403524	0.785835967946	adam	rectify	blosum	0.0	0.0	0.0001	300	250	3 5 7	yes
FES	0.356876697258	0.263777997735	0.945087613984	adam	rectify	blosum	0.0	0.0	0.0001	300	250	3 5 7	yes
BLK	0.4929089712	0.492901290779	0.852373533724	adam	rectify	blosum	0.0	0.0	0.0001	300	250	3 5 7	yes
SHIP1	0.211753399945	0.38645592103	0.876906598115	adam	rectify	blosum	0.0	0.0	0.0001	300	250	3 5 7	yes
FER	0.335088126507	0.332358881165	0.916100356316	adam	rectify	blosum	0.0	0.0	0.0001	300	250	3 5 7	yes
HCK	0.51231945475	0.543233648388	0.853931545746	adam	rectify	blosum	0.0	0.0	0.0001	300	250	3 5 7	yes
MIST	0.165553952778	0.10449565008	0.872536418166	adam	rectify	blosum	0.0	0.0	0.0001	300	250	3 5 7	yes
TNS1	0.35069628156	0.500348937833	0.800053607497	adam	rectify	blosum	0.0	0.0	0.0001	300	250	3 5 7	yes
BCAR3	0.286027118961	0.28643682852	0.782935075354	adam	rectify	blosum	0.0	0.0	0.0001	300	250	3 5 7	yes
SH2B	0.406714121439	0.424514423158	0.885675182482	adam	rectify	blosum	0.0	0.0	0.0001	300	250	3 5 7	yes
SOCS7	0.261567546473	0.32596650554	0.740825488145	adam	rectify	blosum	0.0	0.0	0.0001	300	250	3 5 7	yes
ITK	0.468481477096	0.368662679717	0.896440752751	adam	rectify	blosum	0.0	0.0	0.0001	300	250	3 5 7	yes
NCK2	0.431828497646	0.453971133599	0.890885272604	adam	rectify	blosum	0.0	0.0	0.0001	300	250	3 5 7	yes
BMX	0.306945227938	0.329376760971	0.879734048415	adam	rectify	blosum	0.0	0.0	0.0001	300	250	3 5 7	yes
VAV1	0.301513648204	0.311317893861	0.92238513813	adam	rectify	blosum	0.0	0.0	0.0001	300	250	3 5 7	yes
APS	0.374158138193	0.33930117689	0.857156902558	adam	rectify	blosum	0.0	0.0	0.0001	300	250	3 5 7	yes
DAPP1	0.231735078106	0.161448622323	0.753379593935	adam	rectify	blosum	0.0	0.0	0.0001	300	250	3 5 7	yes
GRB14	0.409842816472	0.384730349609	0.79155803546	adam	rectify	blosum	0.0	0.0	0.0001	300	250	3 5 7	yes
CBL	0.206413075827	0.240974421986	0.659185007627	adam	rectify	blosum	0.0	0.0	0.0001	300	250	3 5 7	yes
MATK	0.289097603481	0.441717222443	0.776904176904	adam	rectify	blosum	0.0	0.0	0.0001	300	250	3 5 7	yes
TENC1	0.414655592766	0.35548434153	0.893650188222	adam	rectify	blosum	0.0	0.0	0.0001	300	250	3 5 7	yes
GRB2	0.508825286214	0.433361904254	0.929720513011	adam	rectify	blosum	0.0	0.0	0.0001	300	250	3 5 7	yes
BRK	0.523379140917	0.464757427594	0.890809699575	adam	rectify	blosum	0.0	0.0	0.0001	300	250	3 5 7	yes
GRB10	0.339385956956	0.266039796766	0.910457814141	adam	rectify	blosum	0.0	0.0	0.0001	300	250	3 5 7	yes
BRDG1	0.386927678719	0.31448404525	0.888604286461	adam	rectify	blosum	0.0	0.0	0.0001	300	250	3 5 7	yes
YES	0.346587114228	0.502554667101	0.808033541884	adam	rectify	blosum	0.0	0.0	0.0001	300	250	3 5 7	yes
SLP76	0.302922798914	0.27875456909	0.917052469136	adam	rectify	blosum	0.0	0.0	0.0001	300	250	3 5 7	yes
BTK	0.257811966337	0.142856034954	0.83864577349	adam	rectify	blosum	0.0	0.0	0.0001	300	250	3 5 7	yes
GADS	0.631066388829	0.36619340553	0.935813139685	adam	rectify	blosum	0.0	0.0	0.0001	300	250	3 5 7	yes
