SH2	PCC	spearman	AUC	update	activation	data_encoding	dropout_dense	dropout_cnn	learning_rate	hidden_nodes	n_filters	filter_sizes	separate
VAV2	0.162433041482	0.230314342816	0.788773148148	adam	rectify	blosum	0.0	0.4	0.0001	400	250	3 5 7	no
CRKL	0.318733378155	0.322126472415	0.800922185445	adam	rectify	blosum	0.0	0.4	0.0001	400	250	3 5 7	no
SRC	0.247148617476	0.380584601905	0.733169511985	adam	rectify	blosum	0.0	0.4	0.0001	400	250	3 5 7	no
SH2D1B	0.309499452417	0.35293419242	0.741844651172	adam	rectify	blosum	0.0	0.4	0.0001	400	250	3 5 7	no
SH2D1A	0.175092142201	0.220665416011	0.665807250199	adam	rectify	blosum	0.0	0.4	0.0001	400	250	3 5 7	no
SHIP2	0.194135400897	0.333559887085	0.646675302245	adam	rectify	blosum	0.0	0.4	0.0001	400	250	3 5 7	no
PIK3R1_1	0.161620432016	0.212219899518	0.657120119273	adam	rectify	blosum	0.0	0.4	0.0001	400	250	3 5 7	no
SH2D3A	0.058345069577	0.06771394858	0.470338983051	adam	rectify	blosum	0.0	0.4	0.0001	400	250	3 5 7	no
SH3BP2	0.121985017814	0.160931245362	0.808517471737	adam	rectify	blosum	0.0	0.4	0.0001	400	250	3 5 7	no
SH2D3C	0.21175504593	0.315570524779	0.831399845321	adam	rectify	blosum	0.0	0.4	0.0001	400	250	3 5 7	no
ABL1	0.349365804439	0.364201630443	0.724052894146	adam	rectify	blosum	0.0	0.4	0.0001	400	250	3 5 7	no
CRK	0.292268546948	0.292752887894	0.766474780702	adam	rectify	blosum	0.0	0.4	0.0001	400	250	3 5 7	no
HSH2D	0.192544567502	0.242808800475	0.772481319248	adam	rectify	blosum	0.0	0.4	0.0001	400	250	3 5 7	no
ABL2	0.356520505564	0.358868544669	0.68354602001	adam	rectify	blosum	0.0	0.4	0.0001	400	250	3 5 7	no
TXK	0.189494401693	0.246556238487	0.769145651055	adam	rectify	blosum	0.0	0.4	0.0001	400	250	3 5 7	no
PTPN11_1	0.140287147579	0.23151620183	0.618706518938	adam	rectify	blosum	0.0	0.4	0.0001	400	250	3 5 7	no
PTPN11_2	0.099920692164	0.0868678342679	0.797120082283	adam	rectify	blosum	0.0	0.4	0.0001	400	250	3 5 7	no
FYN	0.357363518375	0.372729659958	0.766443781209	adam	rectify	blosum	0.0	0.4	0.0001	400	250	3 5 7	no
SYK_2	0.153476226473	0.214644702065	0.695404964356	adam	rectify	blosum	0.0	0.4	0.0001	400	250	3 5 7	no
SYK_1	0.119255254623	0.128476930437	0.821630658436	adam	rectify	blosum	0.0	0.4	0.0001	400	250	3 5 7	no
SRMS	0.182299484096	0.30683047712	0.704013994462	adam	rectify	blosum	0.0	0.4	0.0001	400	250	3 5 7	no
BKS	0.0541607642774	0.0875286343622	0.676639434754	adam	rectify	blosum	0.0	0.4	0.0001	400	250	3 5 7	no
TNS3	0.143108435341	0.200000599803	0.681746318781	adam	rectify	blosum	0.0	0.4	0.0001	400	250	3 5 7	no
LYN	0.294760875121	0.42321044914	0.769926163352	adam	rectify	blosum	0.0	0.4	0.0001	400	250	3 5 7	no
FGR	0.247454300707	0.367233026628	0.750733683145	adam	rectify	blosum	0.0	0.4	0.0001	400	250	3 5 7	no
TNS4	0.196084502747	0.279350344662	0.86599845798	adam	rectify	blosum	0.0	0.4	0.0001	400	250	3 5 7	no
SHC4	0.125751403384	0.154578259214	0.70463694785	adam	rectify	blosum	0.0	0.4	0.0001	400	250	3 5 7	no
CBLB	0.0763701402396	0.0867128546866	0.590527710311	adam	rectify	blosum	0.0	0.4	0.0001	400	250	3 5 7	no
SHC1	0.163315784211	0.243032619085	0.687260209575	adam	rectify	blosum	0.0	0.4	0.0001	400	250	3 5 7	no
CSK	0.178573475572	0.321378622679	0.783246887967	adam	rectify	blosum	0.0	0.4	0.0001	400	250	3 5 7	no
SHC3	0.117203637097	0.18883164295	0.584685032612	adam	rectify	blosum	0.0	0.4	0.0001	400	250	3 5 7	no
FRK	0.337738093102	0.389458280583	0.747011845819	adam	rectify	blosum	0.0	0.4	0.0001	400	250	3 5 7	no
SH2D2A	0.189948524321	0.21345734711	0.603807563674	adam	rectify	blosum	0.0	0.4	0.0001	400	250	3 5 7	no
SHD	0.153765279043	0.173459689816	0.630794083931	adam	rectify	blosum	0.0	0.4	0.0001	400	250	3 5 7	no
FES	0.206777233864	0.164945579966	0.85169939685	adam	rectify	blosum	0.0	0.4	0.0001	400	250	3 5 7	no
BLK	0.324135790919	0.36810506703	0.770181146139	adam	rectify	blosum	0.0	0.4	0.0001	400	250	3 5 7	no
SHIP1	0.0660704351382	0.194104187496	0.639760068552	adam	rectify	blosum	0.0	0.4	0.0001	400	250	3 5 7	no
FER	0.182671655106	0.192607084691	0.883040076406	adam	rectify	blosum	0.0	0.4	0.0001	400	250	3 5 7	no
HCK	0.377851506265	0.430310217663	0.7896460936	adam	rectify	blosum	0.0	0.4	0.0001	400	250	3 5 7	no
MIST	0.0789485936908	0.0858303281288	0.800685518423	adam	rectify	blosum	0.0	0.4	0.0001	400	250	3 5 7	no
TNS1	0.197202359665	0.267150021739	0.727626049415	adam	rectify	blosum	0.0	0.4	0.0001	400	250	3 5 7	no
BCAR3	0.0692405940465	0.104304418469	0.589994842702	adam	rectify	blosum	0.0	0.4	0.0001	400	250	3 5 7	no
SH2B	0.159939508074	0.221870702147	0.705570038234	adam	rectify	blosum	0.0	0.4	0.0001	400	250	3 5 7	no
SOCS7	0.134626578352	0.234220396729	0.636709669921	adam	rectify	blosum	0.0	0.4	0.0001	400	250	3 5 7	no
ITK	0.179959044195	0.198505327841	0.735521735781	adam	rectify	blosum	0.0	0.4	0.0001	400	250	3 5 7	no
NCK2	0.254936057395	0.330225274338	0.78621918987	adam	rectify	blosum	0.0	0.4	0.0001	400	250	3 5 7	no
BMX	0.168583722598	0.176931536526	0.729640377622	adam	rectify	blosum	0.0	0.4	0.0001	400	250	3 5 7	no
VAV1	0.132264480351	0.163545277055	0.712974590043	adam	rectify	blosum	0.0	0.4	0.0001	400	250	3 5 7	no
APS	0.171987465732	0.150060414733	0.708696860239	adam	rectify	blosum	0.0	0.4	0.0001	400	250	3 5 7	no
DAPP1	0.147586624291	0.113697751006	0.756001028013	adam	rectify	blosum	0.0	0.4	0.0001	400	250	3 5 7	no
GRB14	0.237592093564	0.272088858134	0.694331684576	adam	rectify	blosum	0.0	0.4	0.0001	400	250	3 5 7	no
CBL	0.0710024967857	0.0958320335262	0.487668139226	adam	rectify	blosum	0.0	0.4	0.0001	400	250	3 5 7	no
MATK	0.145711688592	0.299392818466	0.623727623728	adam	rectify	blosum	0.0	0.4	0.0001	400	250	3 5 7	no
TENC1	0.211722889106	0.240753930617	0.752093663455	adam	rectify	blosum	0.0	0.4	0.0001	400	250	3 5 7	no
GRB2	0.236757836192	0.269673721164	0.762707885438	adam	rectify	blosum	0.0	0.4	0.0001	400	250	3 5 7	no
BRK	0.30017004077	0.317581565844	0.779285502922	adam	rectify	blosum	0.0	0.4	0.0001	400	250	3 5 7	no
GRB10	0.141769343204	0.111786053529	0.821014679372	adam	rectify	blosum	0.0	0.4	0.0001	400	250	3 5 7	no
BRDG1	0.0674331608579	0.114395233348	0.620286012994	adam	rectify	blosum	0.0	0.4	0.0001	400	250	3 5 7	no
YES	0.25873258296	0.381853141411	0.725951511992	adam	rectify	blosum	0.0	0.4	0.0001	400	250	3 5 7	no
SLP76	0.128324360635	0.153531108274	0.731481481481	adam	rectify	blosum	0.0	0.4	0.0001	400	250	3 5 7	no
BTK	0.136659032513	0.146556374095	0.740842726678	adam	rectify	blosum	0.0	0.4	0.0001	400	250	3 5 7	no
GADS	0.279688220107	0.216409329766	0.75835109322	adam	rectify	blosum	0.0	0.4	0.0001	400	250	3 5 7	no
