SH2	PCC	spearman	AUC	update	activation	data_encoding	dropout_dense	dropout_cnn	learning_rate	hidden_nodes	n_filters	filter_sizes	separate
VAV2	0.475206753419	0.391612000243	0.975244341564	adam	rectify	blosum	0.0	0.0	0.0001	400	350	3 5 7	no
CRKL	0.592855349177	0.488380981274	0.935185305846	adam	rectify	blosum	0.0	0.0	0.0001	400	350	3 5 7	no
SRC	0.298397409599	0.428940775227	0.827125366442	adam	rectify	blosum	0.0	0.0	0.0001	400	350	3 5 7	no
SH2D1B	0.603926361883	0.586808082206	0.867530447508	adam	rectify	blosum	0.0	0.0	0.0001	400	350	3 5 7	no
SH2D1A	0.433191443645	0.463570472118	0.866281432458	adam	rectify	blosum	0.0	0.0	0.0001	400	350	3 5 7	no
SHIP2	0.329526123431	0.426558155263	0.814075993092	adam	rectify	blosum	0.0	0.0	0.0001	400	350	3 5 7	no
PIK3R1_1	0.34773165885	0.429263079426	0.796490309062	adam	rectify	blosum	0.0	0.0	0.0001	400	350	3 5 7	no
SH2D3A	0.313992918544	0.368360375544	0.953903441192	adam	rectify	blosum	0.0	0.0	0.0001	400	350	3 5 7	no
SH3BP2	0.197142922449	0.180531540027	0.964349948613	adam	rectify	blosum	0.0	0.0	0.0001	400	350	3 5 7	no
SH2D3C	0.322791664637	0.449889726485	0.907344221525	adam	rectify	blosum	0.0	0.0	0.0001	400	350	3 5 7	no
ABL1	0.516082139494	0.517864205667	0.838213624382	adam	rectify	blosum	0.0	0.0	0.0001	400	350	3 5 7	no
CRK	0.551948506839	0.475098322242	0.922297149123	adam	rectify	blosum	0.0	0.0	0.0001	400	350	3 5 7	no
HSH2D	0.285074543312	0.347512785371	0.863574680065	adam	rectify	blosum	0.0	0.0	0.0001	400	350	3 5 7	no
ABL2	0.458445327325	0.466257851536	0.741464676981	adam	rectify	blosum	0.0	0.0	0.0001	400	350	3 5 7	no
TXK	0.294544710253	0.401300562637	0.887622233659	adam	rectify	blosum	0.0	0.0	0.0001	400	350	3 5 7	no
PTPN11_1	0.344430813227	0.453648268346	0.87310830542	adam	rectify	blosum	0.0	0.0	0.0001	400	350	3 5 7	no
PTPN11_2	0.298470552694	0.295505498063	0.835359806046	adam	rectify	blosum	0.0	0.0	0.0001	400	350	3 5 7	no
FYN	0.607987801635	0.577864906333	0.900820754176	adam	rectify	blosum	0.0	0.0	0.0001	400	350	3 5 7	no
SYK_2	0.472205778152	0.347541574414	0.924143262046	adam	rectify	blosum	0.0	0.0	0.0001	400	350	3 5 7	no
SYK_1	0.337575296471	0.188491366436	0.954893261317	adam	rectify	blosum	0.0	0.0	0.0001	400	350	3 5 7	no
SRMS	0.316776032203	0.493385823564	0.831595792248	adam	rectify	blosum	0.0	0.0	0.0001	400	350	3 5 7	no
BKS	0.375132519082	0.220254099686	0.961580922941	adam	rectify	blosum	0.0	0.0	0.0001	400	350	3 5 7	no
TNS3	0.282925422091	0.334586657926	0.896264531129	adam	rectify	blosum	0.0	0.0	0.0001	400	350	3 5 7	no
LYN	0.371628238086	0.454916623164	0.847556102187	adam	rectify	blosum	0.0	0.0	0.0001	400	350	3 5 7	no
FGR	0.308210143772	0.404976653373	0.823761391881	adam	rectify	blosum	0.0	0.0	0.0001	400	350	3 5 7	no
TNS4	0.354595210558	0.419108379894	0.970341814444	adam	rectify	blosum	0.0	0.0	0.0001	400	350	3 5 7	no
SHC4	0.381640012042	0.294776733027	0.889136135323	adam	rectify	blosum	0.0	0.0	0.0001	400	350	3 5 7	no
CBLB	0.260120420005	0.354531291572	0.844042099065	adam	rectify	blosum	0.0	0.0	0.0001	400	350	3 5 7	no
SHC1	0.380650545873	0.493818248086	0.880715163095	adam	rectify	blosum	0.0	0.0	0.0001	400	350	3 5 7	no
CSK	0.560509226805	0.444694462845	0.956133298755	adam	rectify	blosum	0.0	0.0	0.0001	400	350	3 5 7	no
SHC3	0.383272303096	0.524572723868	0.845455715757	adam	rectify	blosum	0.0	0.0	0.0001	400	350	3 5 7	no
FRK	0.534328018015	0.541546013588	0.853205722851	adam	rectify	blosum	0.0	0.0	0.0001	400	350	3 5 7	no
SH2D2A	0.444127143159	0.48783130136	0.940228110797	adam	rectify	blosum	0.0	0.0	0.0001	400	350	3 5 7	no
SHD	0.465586130246	0.449234309584	0.817560342825	adam	rectify	blosum	0.0	0.0	0.0001	400	350	3 5 7	no
FES	0.441100308893	0.348592102661	0.957922419461	adam	rectify	blosum	0.0	0.0	0.0001	400	350	3 5 7	no
BLK	0.529136348353	0.518838649922	0.860563294233	adam	rectify	blosum	0.0	0.0	0.0001	400	350	3 5 7	no
SHIP1	0.299414950963	0.452925788031	0.824850042845	adam	rectify	blosum	0.0	0.0	0.0001	400	350	3 5 7	no
FER	0.35460403401	0.332322657312	0.958821584689	adam	rectify	blosum	0.0	0.0	0.0001	400	350	3 5 7	no
HCK	0.532815766616	0.553815356178	0.856636441608	adam	rectify	blosum	0.0	0.0	0.0001	400	350	3 5 7	no
MIST	0.2240040664	0.0957879627285	0.942673521851	adam	rectify	blosum	0.0	0.0	0.0001	400	350	3 5 7	no
TNS1	0.430529087882	0.524421760403	0.887500837617	adam	rectify	blosum	0.0	0.0	0.0001	400	350	3 5 7	no
BCAR3	0.451614271992	0.43957587184	0.925233510974	adam	rectify	blosum	0.0	0.0	0.0001	400	350	3 5 7	no
SH2B	0.474608761389	0.442541250434	0.919968717414	adam	rectify	blosum	0.0	0.0	0.0001	400	350	3 5 7	no
SOCS7	0.30419160248	0.307886964556	0.802275831009	adam	rectify	blosum	0.0	0.0	0.0001	400	350	3 5 7	no
ITK	0.508916387877	0.480991285452	0.935181359125	adam	rectify	blosum	0.0	0.0	0.0001	400	350	3 5 7	no
NCK2	0.460540848765	0.465611737305	0.903739473846	adam	rectify	blosum	0.0	0.0	0.0001	400	350	3 5 7	no
BMX	0.315589715823	0.401417045497	0.948389229695	adam	rectify	blosum	0.0	0.0	0.0001	400	350	3 5 7	no
VAV1	0.428058707092	0.355826712058	0.944858915645	adam	rectify	blosum	0.0	0.0	0.0001	400	350	3 5 7	no
APS	0.427000573688	0.492352697504	0.862325004809	adam	rectify	blosum	0.0	0.0	0.0001	400	350	3 5 7	no
DAPP1	0.202138464936	0.148162550352	0.867386276022	adam	rectify	blosum	0.0	0.0	0.0001	400	350	3 5 7	no
GRB14	0.416732937633	0.407686704134	0.797102084907	adam	rectify	blosum	0.0	0.0	0.0001	400	350	3 5 7	no
CBL	0.259640133473	0.325353622146	0.787416549456	adam	rectify	blosum	0.0	0.0	0.0001	400	350	3 5 7	no
MATK	0.332627294978	0.477122696843	0.823610623611	adam	rectify	blosum	0.0	0.0	0.0001	400	350	3 5 7	no
TENC1	0.458896390923	0.42114488234	0.929127764603	adam	rectify	blosum	0.0	0.0	0.0001	400	350	3 5 7	no
GRB2	0.586731397124	0.480367964474	0.953326167	adam	rectify	blosum	0.0	0.0	0.0001	400	350	3 5 7	no
BRK	0.542441709601	0.550436826953	0.904107790853	adam	rectify	blosum	0.0	0.0	0.0001	400	350	3 5 7	no
GRB10	0.370216215923	0.378885018868	0.906495770518	adam	rectify	blosum	0.0	0.0	0.0001	400	350	3 5 7	no
BRDG1	0.49572215181	0.350795295349	0.89979463819	adam	rectify	blosum	0.0	0.0	0.0001	400	350	3 5 7	no
YES	0.364828073723	0.46857319573	0.823253388947	adam	rectify	blosum	0.0	0.0	0.0001	400	350	3 5 7	no
SLP76	0.332378997645	0.313548365869	0.972157921811	adam	rectify	blosum	0.0	0.0	0.0001	400	350	3 5 7	no
BTK	0.29331878288	0.288344492758	0.900136690505	adam	rectify	blosum	0.0	0.0	0.0001	400	350	3 5 7	no
GADS	0.733092476686	0.383397221346	0.954562317468	adam	rectify	blosum	0.0	0.0	0.0001	400	350	3 5 7	no
