SH2	PCC	spearman	AUC	update	activation	data_encoding	learning_rate	hidden_nodes	n_filters	filter_sizes
VAV2	0.312278038414	0.357914972898	0.915895061728	adam	rectify	blosum	0.0001	120	40	3 5 7
CRKL	0.481090297156	0.388950307274	0.884105658214	adam	rectify	blosum	0.0001	120	40	3 5 7
SRC	0.323087505279	0.452777554268	0.819908604932	adam	rectify	blosum	0.0001	120	40	3 5 7
SH2D1B	0.537880235228	0.568004055541	0.843302360285	adam	rectify	blosum	0.0001	120	40	3 5 7
SH2D1A	0.377242414049	0.419011796538	0.841266089437	adam	rectify	blosum	0.0001	120	40	3 5 7
SHIP2	0.29432297068	0.414808111906	0.770782959125	adam	rectify	blosum	0.0001	120	40	3 5 7
PIK3R1_1	0.321784582016	0.420350309061	0.756960954185	adam	rectify	blosum	0.0001	120	40	3 5 7
SH2D3A	0.165199362687	0.197810669401	0.667051874679	adam	rectify	blosum	0.0001	120	40	3 5 7
SH3BP2	0.14796180238	0.190844737207	0.908337615622	adam	rectify	blosum	0.0001	120	40	3 5 7
SH2D3C	0.296528591588	0.423736524144	0.819260573526	adam	rectify	blosum	0.0001	120	40	3 5 7
ABL1	0.446498153912	0.460002811844	0.785717709082	adam	rectify	blosum	0.0001	120	40	3 5 7
CRK	0.45835373928	0.383620228383	0.873108552632	adam	rectify	blosum	0.0001	120	40	3 5 7
HSH2D	0.16667692838	0.207345166909	0.710246500043	adam	rectify	blosum	0.0001	120	40	3 5 7
ABL2	0.420872565781	0.427965050047	0.719294049937	adam	rectify	blosum	0.0001	120	40	3 5 7
TXK	0.269699062647	0.344229570668	0.89395265054	adam	rectify	blosum	0.0001	120	40	3 5 7
PTPN11_1	0.275414812516	0.420764005616	0.789195224598	adam	rectify	blosum	0.0001	120	40	3 5 7
PTPN11_2	0.226894925524	0.211233152761	0.755941666973	adam	rectify	blosum	0.0001	120	40	3 5 7
FYN	0.5540789931	0.508081251548	0.876300962329	adam	rectify	blosum	0.0001	120	40	3 5 7
SYK_2	0.268015862368	0.284723979939	0.811010907842	adam	rectify	blosum	0.0001	120	40	3 5 7
SYK_1	0.20744004759	0.178262236507	0.828639403292	adam	rectify	blosum	0.0001	120	40	3 5 7
SRMS	0.32906630964	0.503368869714	0.825673248143	adam	rectify	blosum	0.0001	120	40	3 5 7
BKS	0.14014081749	0.140457321138	0.875395598734	adam	rectify	blosum	0.0001	120	40	3 5 7
TNS3	0.259424483193	0.34232158189	0.802211314906	adam	rectify	blosum	0.0001	120	40	3 5 7
LYN	0.374481007678	0.489509512943	0.831877720216	adam	rectify	blosum	0.0001	120	40	3 5 7
FGR	0.343008665043	0.450011217589	0.831394642364	adam	rectify	blosum	0.0001	120	40	3 5 7
TNS4	0.281684501399	0.348035691984	0.901721922385	adam	rectify	blosum	0.0001	120	40	3 5 7
SHC4	0.255731899254	0.257531983106	0.787099276112	adam	rectify	blosum	0.0001	120	40	3 5 7
CBLB	0.169528424544	0.239952187466	0.716677706631	adam	rectify	blosum	0.0001	120	40	3 5 7
SHC1	0.31587989665	0.444785224285	0.839391595772	adam	rectify	blosum	0.0001	120	40	3 5 7
CSK	0.310643875814	0.36638385817	0.84690093361	adam	rectify	blosum	0.0001	120	40	3 5 7
SHC3	0.301620371851	0.424756565891	0.811083934089	adam	rectify	blosum	0.0001	120	40	3 5 7
FRK	0.505231146197	0.498034531493	0.847384022363	adam	rectify	blosum	0.0001	120	40	3 5 7
SH2D2A	0.310233630187	0.339976990812	0.798873738673	adam	rectify	blosum	0.0001	120	40	3 5 7
SHD	0.373967560081	0.371438870979	0.772983901606	adam	rectify	blosum	0.0001	120	40	3 5 7
FES	0.3243414626	0.208641371263	0.941685961753	adam	rectify	blosum	0.0001	120	40	3 5 7
BLK	0.499433354647	0.477325262103	0.850442937439	adam	rectify	blosum	0.0001	120	40	3 5 7
SHIP1	0.234299233601	0.391729007097	0.890831191088	adam	rectify	blosum	0.0001	120	40	3 5 7
FER	0.268055556191	0.24608458069	0.908276090071	adam	rectify	blosum	0.0001	120	40	3 5 7
HCK	0.497773683671	0.507844650083	0.838307034224	adam	rectify	blosum	0.0001	120	40	3 5 7
MIST	0.134861566711	0.0910301360718	0.657155098543	adam	rectify	blosum	0.0001	120	40	3 5 7
TNS1	0.353689483131	0.470919688883	0.834764462058	adam	rectify	blosum	0.0001	120	40	3 5 7
BCAR3	0.24883870584	0.277880092852	0.808291788436	adam	rectify	blosum	0.0001	120	40	3 5 7
SH2B	0.370507906217	0.437512448052	0.855183350713	adam	rectify	blosum	0.0001	120	40	3 5 7
SOCS7	0.280654023349	0.372608515512	0.785386884007	adam	rectify	blosum	0.0001	120	40	3 5 7
ITK	0.446265705801	0.421875075502	0.864822843056	adam	rectify	blosum	0.0001	120	40	3 5 7
NCK2	0.393724532386	0.41312701411	0.87309453562	adam	rectify	blosum	0.0001	120	40	3 5 7
BMX	0.288172381961	0.303715373772	0.934320243911	adam	rectify	blosum	0.0001	120	40	3 5 7
VAV1	0.297364174046	0.279560370441	0.852655488255	adam	rectify	blosum	0.0001	120	40	3 5 7
APS	0.380602043182	0.412797319343	0.834030820527	adam	rectify	blosum	0.0001	120	40	3 5 7
DAPP1	0.188017028243	0.142376560972	0.821639681316	adam	rectify	blosum	0.0001	120	40	3 5 7
GRB14	0.391108427249	0.383500430705	0.787034104107	adam	rectify	blosum	0.0001	120	40	3 5 7
CBL	0.18994493521	0.220855586735	0.739416390974	adam	rectify	blosum	0.0001	120	40	3 5 7
MATK	0.244975270762	0.421251885415	0.77645957646	adam	rectify	blosum	0.0001	120	40	3 5 7
TENC1	0.385961384929	0.363361235188	0.865115559167	adam	rectify	blosum	0.0001	120	40	3 5 7
GRB2	0.509252409938	0.438183071935	0.92598907752	adam	rectify	blosum	0.0001	120	40	3 5 7
BRK	0.509429831172	0.487265763268	0.873500154629	adam	rectify	blosum	0.0001	120	40	3 5 7
GRB10	0.309327506806	0.275602539372	0.853186473583	adam	rectify	blosum	0.0001	120	40	3 5 7
BRDG1	0.271707908203	0.219175220182	0.780008961243	adam	rectify	blosum	0.0001	120	40	3 5 7
YES	0.356911315292	0.479457648405	0.818752172402	adam	rectify	blosum	0.0001	120	40	3 5 7
SLP76	0.247717366834	0.269435350727	0.867862654321	adam	rectify	blosum	0.0001	120	40	3 5 7
BTK	0.223096684705	0.174317722522	0.802650607183	adam	rectify	blosum	0.0001	120	40	3 5 7
GADS	0.637642384321	0.373147611751	0.941137158944	adam	rectify	blosum	0.0001	120	40	3 5 7
