SH2	PCC	spearman	AUC	update	activation	data_encoding	learning_rate	hidden_nodes	lstm_nodes	n_aa	separate
VAV2	0.418065672782	0.388555078617	0.978748713992	adam	rectify	blosum	0.0001	20	294	3	no
CRKL	0.591564589955	0.504135170454	0.940196947188	adam	rectify	blosum	0.0001	20	294	3	no
SRC	0.302273950873	0.459517843884	0.784635281945	adam	rectify	blosum	0.0001	20	294	3	no
SH2D1B	0.600520167478	0.595703602389	0.867585482636	adam	rectify	blosum	0.0001	20	294	3	no
SH2D1A	0.44676771625	0.466201378704	0.852252935908	adam	rectify	blosum	0.0001	20	294	3	no
SHIP2	0.354645765189	0.488504272053	0.816112550374	adam	rectify	blosum	0.0001	20	294	3	no
PIK3R1_1	0.366059994928	0.453180955005	0.78523458382	adam	rectify	blosum	0.0001	20	294	3	no
SH2D3A	0.293163281169	0.361870724925	0.85760143811	adam	rectify	blosum	0.0001	20	294	3	no
SH3BP2	0.186179216461	0.230013554547	0.949319116136	adam	rectify	blosum	0.0001	20	294	3	no
SH2D3C	0.320293375312	0.443842444671	0.878122014467	adam	rectify	blosum	0.0001	20	294	3	no
ABL1	0.510756932918	0.515791786291	0.835330152713	adam	rectify	blosum	0.0001	20	294	3	no
CRK	0.539248561335	0.516573510661	0.930797697368	adam	rectify	blosum	0.0001	20	294	3	no
HSH2D	0.305723084631	0.397846379563	0.837052306107	adam	rectify	blosum	0.0001	20	294	3	no
ABL2	0.454292353995	0.464965962843	0.73295479423	adam	rectify	blosum	0.0001	20	294	3	no
TXK	0.32566048086	0.446771786636	0.8881626351	adam	rectify	blosum	0.0001	20	294	3	no
PTPN11_1	0.344543879684	0.440332122071	0.901674826076	adam	rectify	blosum	0.0001	20	294	3	no
PTPN11_2	0.345559627984	0.338645513817	0.945358704037	adam	rectify	blosum	0.0001	20	294	3	no
FYN	0.604987995513	0.572057508207	0.896598605292	adam	rectify	blosum	0.0001	20	294	3	no
SYK_2	0.450821076947	0.366976610381	0.938641243666	adam	rectify	blosum	0.0001	20	294	3	no
SYK_1	0.273402403671	0.165688648569	0.923418209877	adam	rectify	blosum	0.0001	20	294	3	no
SRMS	0.320523639469	0.51985448741	0.781917021627	adam	rectify	blosum	0.0001	20	294	3	no
BKS	0.45183311509	0.237692774849	0.969143298741	adam	rectify	blosum	0.0001	20	294	3	no
TNS3	0.291021899926	0.362017030703	0.888504262464	adam	rectify	blosum	0.0001	20	294	3	no
LYN	0.354278916556	0.477161108004	0.816969591559	adam	rectify	blosum	0.0001	20	294	3	no
FGR	0.31417495997	0.448420663407	0.805707447298	adam	rectify	blosum	0.0001	20	294	3	no
TNS4	0.30977251858	0.420251449186	0.974813672578	adam	rectify	blosum	0.0001	20	294	3	no
SHC4	0.402633769228	0.297207532281	0.889782464175	adam	rectify	blosum	0.0001	20	294	3	no
CBLB	0.230660771187	0.371180371353	0.756476779274	adam	rectify	blosum	0.0001	20	294	3	no
SHC1	0.328749040833	0.516322168359	0.839876863352	adam	rectify	blosum	0.0001	20	294	3	no
CSK	0.51361815081	0.434636692302	0.953585321577	adam	rectify	blosum	0.0001	20	294	3	no
SHC3	0.362362907851	0.554033517906	0.813186577412	adam	rectify	blosum	0.0001	20	294	3	no
FRK	0.537768698616	0.547326587047	0.85577631159	adam	rectify	blosum	0.0001	20	294	3	no
SH2D2A	0.438119883548	0.479186563099	0.841237172341	adam	rectify	blosum	0.0001	20	294	3	no
SHD	0.458744057094	0.433458381011	0.798159459885	adam	rectify	blosum	0.0001	20	294	3	no
FES	0.4064555283	0.342049965615	0.958236857902	adam	rectify	blosum	0.0001	20	294	3	no
BLK	0.530255625916	0.530439306293	0.861146749756	adam	rectify	blosum	0.0001	20	294	3	no
SHIP1	0.303745061796	0.492003629653	0.859811482434	adam	rectify	blosum	0.0001	20	294	3	no
FER	0.393192494215	0.403375242928	0.966205047203	adam	rectify	blosum	0.0001	20	294	3	no
HCK	0.527755863311	0.548628469707	0.853822806214	adam	rectify	blosum	0.0001	20	294	3	no
MIST	0.213746621573	0.115893669885	0.948843187661	adam	rectify	blosum	0.0001	20	294	3	no
TNS1	0.384795151812	0.554888824001	0.848424801126	adam	rectify	blosum	0.0001	20	294	3	no
BCAR3	0.419693970956	0.463170204361	0.90152426795	adam	rectify	blosum	0.0001	20	294	3	no
SH2B	0.456252321662	0.432334553137	0.873722627737	adam	rectify	blosum	0.0001	20	294	3	no
SOCS7	0.301847896462	0.344525164639	0.782590219665	adam	rectify	blosum	0.0001	20	294	3	no
ITK	0.528639948696	0.48257457834	0.935741649916	adam	rectify	blosum	0.0001	20	294	3	no
NCK2	0.464406728755	0.48562132679	0.907750169033	adam	rectify	blosum	0.0001	20	294	3	no
BMX	0.346637291398	0.413905955098	0.901039562135	adam	rectify	blosum	0.0001	20	294	3	no
VAV1	0.402515548173	0.348652542722	0.911757645147	adam	rectify	blosum	0.0001	20	294	3	no
APS	0.433724267342	0.49066774255	0.878466240622	adam	rectify	blosum	0.0001	20	294	3	no
DAPP1	0.242607150705	0.187851378624	0.81320997173	adam	rectify	blosum	0.0001	20	294	3	no
GRB14	0.414494630295	0.40573370179	0.813529559871	adam	rectify	blosum	0.0001	20	294	3	no
CBL	0.224560817593	0.311451978808	0.682462013907	adam	rectify	blosum	0.0001	20	294	3	no
MATK	0.346806803976	0.474153435258	0.831192231192	adam	rectify	blosum	0.0001	20	294	3	no
TENC1	0.47855821607	0.429734967037	0.914832810954	adam	rectify	blosum	0.0001	20	294	3	no
GRB2	0.57669187521	0.48364249463	0.938245978204	adam	rectify	blosum	0.0001	20	294	3	no
BRK	0.575194640401	0.557007336686	0.917098849071	adam	rectify	blosum	0.0001	20	294	3	no
GRB10	0.437556082112	0.407048077237	0.956259038412	adam	rectify	blosum	0.0001	20	294	3	no
BRDG1	0.482970932411	0.352662036267	0.909006048839	adam	rectify	blosum	0.0001	20	294	3	no
YES	0.334723127173	0.468615719669	0.788229927007	adam	rectify	blosum	0.0001	20	294	3	no
SLP76	0.329326263083	0.333073034758	0.950424382716	adam	rectify	blosum	0.0001	20	294	3	no
BTK	0.343453364954	0.281347470974	0.904732661107	adam	rectify	blosum	0.0001	20	294	3	no
GADS	0.753735555723	0.396672472357	0.956481700739	adam	rectify	blosum	0.0001	20	294	3	no
