SH2	PCC	spearman	AUC	update	activation	data_encoding	learning_rate	hidden_nodes	n_filters	filter_sizes
VAV2	0.434961051781	0.358353256338	0.966531635802	adam	rectify	blosum	0.0001	200	300	3 5 7
CRKL	0.580846313382	0.482203809778	0.934749841452	adam	rectify	blosum	0.0001	200	300	3 5 7
SRC	0.30139343556	0.433163573568	0.828039317124	adam	rectify	blosum	0.0001	200	300	3 5 7
SH2D1B	0.608525806122	0.592554943218	0.869962819711	adam	rectify	blosum	0.0001	200	300	3 5 7
SH2D1A	0.450405735531	0.469649228194	0.869739832139	adam	rectify	blosum	0.0001	200	300	3 5 7
SHIP2	0.351193768981	0.457804117335	0.871257915947	adam	rectify	blosum	0.0001	200	300	3 5 7
PIK3R1_1	0.36271217807	0.436256385834	0.803410968288	adam	rectify	blosum	0.0001	200	300	3 5 7
SH2D3A	0.303109919151	0.358466834572	0.941576784797	adam	rectify	blosum	0.0001	200	300	3 5 7
SH3BP2	0.192329681852	0.196210152665	0.85335303186	adam	rectify	blosum	0.0001	200	300	3 5 7
SH2D3C	0.317963336783	0.44679717135	0.87561985351	adam	rectify	blosum	0.0001	200	300	3 5 7
ABL1	0.507156870155	0.506267658677	0.828726662745	adam	rectify	blosum	0.0001	200	300	3 5 7
CRK	0.533265949309	0.478786559197	0.92826754386	adam	rectify	blosum	0.0001	200	300	3 5 7
HSH2D	0.285685542867	0.353017902831	0.82863523147	adam	rectify	blosum	0.0001	200	300	3 5 7
ABL2	0.451968958134	0.460235195613	0.737869219813	adam	rectify	blosum	0.0001	200	300	3 5 7
TXK	0.30388663217	0.404504238929	0.883015954709	adam	rectify	blosum	0.0001	200	300	3 5 7
PTPN11_1	0.323184759788	0.424919952967	0.864725586189	adam	rectify	blosum	0.0001	200	300	3 5 7
PTPN11_2	0.343218580056	0.313788758441	0.850163464717	adam	rectify	blosum	0.0001	200	300	3 5 7
FYN	0.608569070129	0.569283576318	0.90531313972	adam	rectify	blosum	0.0001	200	300	3 5 7
SYK_2	0.44311095897	0.341448284542	0.91213604741	adam	rectify	blosum	0.0001	200	300	3 5 7
SYK_1	0.265288595343	0.181650765293	0.860468106996	adam	rectify	blosum	0.0001	200	300	3 5 7
SRMS	0.316854299841	0.474922971377	0.826190980475	adam	rectify	blosum	0.0001	200	300	3 5 7
BKS	0.339350843599	0.211260948949	0.931938617796	adam	rectify	blosum	0.0001	200	300	3 5 7
TNS3	0.289048739033	0.337291916336	0.885559287006	adam	rectify	blosum	0.0001	200	300	3 5 7
LYN	0.371322679366	0.467985937981	0.846334463866	adam	rectify	blosum	0.0001	200	300	3 5 7
FGR	0.32001170944	0.415623433645	0.835483752186	adam	rectify	blosum	0.0001	200	300	3 5 7
TNS4	0.372625394598	0.417266055596	0.955127216654	adam	rectify	blosum	0.0001	200	300	3 5 7
SHC4	0.381979712827	0.29867419618	0.900539222928	adam	rectify	blosum	0.0001	200	300	3 5 7
CBLB	0.237371388383	0.332725250879	0.768951939354	adam	rectify	blosum	0.0001	200	300	3 5 7
SHC1	0.371331291408	0.492568876084	0.881898002821	adam	rectify	blosum	0.0001	200	300	3 5 7
CSK	0.544306140316	0.44532678223	0.948003112033	adam	rectify	blosum	0.0001	200	300	3 5 7
SHC3	0.37124781129	0.508330530165	0.853158256093	adam	rectify	blosum	0.0001	200	300	3 5 7
FRK	0.539280701296	0.532315466787	0.861651410781	adam	rectify	blosum	0.0001	200	300	3 5 7
SH2D2A	0.441701512113	0.478933918618	0.947260097762	adam	rectify	blosum	0.0001	200	300	3 5 7
SHD	0.47305984359	0.445404118679	0.820258274667	adam	rectify	blosum	0.0001	200	300	3 5 7
FES	0.441726002166	0.332704832034	0.977303261584	adam	rectify	blosum	0.0001	200	300	3 5 7
BLK	0.528831411341	0.516710452386	0.870399560117	adam	rectify	blosum	0.0001	200	300	3 5 7
SHIP1	0.283694711435	0.434207969039	0.897386461011	adam	rectify	blosum	0.0001	200	300	3 5 7
FER	0.370703650014	0.332223335031	0.989383976784	adam	rectify	blosum	0.0001	200	300	3 5 7
HCK	0.530708085677	0.53612763414	0.862970519354	adam	rectify	blosum	0.0001	200	300	3 5 7
MIST	0.244128841471	0.0944584713148	0.911610968295	adam	rectify	blosum	0.0001	200	300	3 5 7
TNS1	0.422568904837	0.534352045031	0.893962455606	adam	rectify	blosum	0.0001	200	300	3 5 7
BCAR3	0.430209820701	0.428198741584	0.910220044697	adam	rectify	blosum	0.0001	200	300	3 5 7
SH2B	0.461377353362	0.448533731723	0.922480013903	adam	rectify	blosum	0.0001	200	300	3 5 7
SOCS7	0.310790326516	0.304468824759	0.803125726406	adam	rectify	blosum	0.0001	200	300	3 5 7
ITK	0.523004851754	0.478416194076	0.944419153541	adam	rectify	blosum	0.0001	200	300	3 5 7
NCK2	0.457694884991	0.468519890977	0.896248232835	adam	rectify	blosum	0.0001	200	300	3 5 7
BMX	0.342259208962	0.395733381651	0.924108290784	adam	rectify	blosum	0.0001	200	300	3 5 7
VAV1	0.446555122604	0.343814934573	0.937610799232	adam	rectify	blosum	0.0001	200	300	3 5 7
APS	0.425717940866	0.490357218512	0.8824374292	adam	rectify	blosum	0.0001	200	300	3 5 7
DAPP1	0.214594376881	0.138215076551	0.798612181958	adam	rectify	blosum	0.0001	200	300	3 5 7
GRB14	0.412137281799	0.396079032386	0.797764836789	adam	rectify	blosum	0.0001	200	300	3 5 7
CBL	0.254111097332	0.318804747615	0.749400740902	adam	rectify	blosum	0.0001	200	300	3 5 7
MATK	0.318254640885	0.449283077206	0.834608634609	adam	rectify	blosum	0.0001	200	300	3 5 7
TENC1	0.471205760789	0.40154146512	0.924688921687	adam	rectify	blosum	0.0001	200	300	3 5 7
GRB2	0.604131743503	0.469646000472	0.949718288976	adam	rectify	blosum	0.0001	200	300	3 5 7
BRK	0.552979532064	0.550208158947	0.913247586564	adam	rectify	blosum	0.0001	200	300	3 5 7
GRB10	0.379456880235	0.388108471661	0.914776441689	adam	rectify	blosum	0.0001	200	300	3 5 7
BRDG1	0.478643614963	0.333040584995	0.908901501008	adam	rectify	blosum	0.0001	200	300	3 5 7
YES	0.35461933653	0.46529860716	0.819573340285	adam	rectify	blosum	0.0001	200	300	3 5 7
SLP76	0.317831357342	0.287173905262	0.976112397119	adam	rectify	blosum	0.0001	200	300	3 5 7
BTK	0.299091560206	0.283291843185	0.903484617366	adam	rectify	blosum	0.0001	200	300	3 5 7
GADS	0.73066132229	0.391631635717	0.956263319915	adam	rectify	blosum	0.0001	200	300	3 5 7
