SH2	PCC	spearman	AUC	data_encoding	learning_rate	hidden_nodes	nested
ITK	0.46565429566	0.427469764452	0.895869956507	blosum	0.1	15	yes
LYN	0.370092460852	0.495776475082	0.849535570381	blosum	0.1	15	yes
BCAR3	0.358309696735	0.436051206807	0.855481061257	blosum	0.1	15	yes
CSK	0.48049198104	0.412411767012	0.95145876556	blosum	0.1	15	yes
YES	0.34919811794	0.456339998572	0.836096628432	blosum	0.1	15	yes
HCK	0.518874693835	0.555926069684	0.856635761985	blosum	0.1	15	yes
FRK	0.544867049812	0.589372964215	0.870244876519	blosum	0.1	15	yes
CBL	0.221137837279	0.279756854351	0.718536421086	blosum	0.1	15	yes
CRKL	0.586473827155	0.463466743192	0.934274197051	blosum	0.1	15	yes
SH2D3C	0.315320397102	0.426822469289	0.885492015832	blosum	0.1	15	yes
RASA1_12	0.393322457695	0.449697210413	0.872657887841	blosum	0.1	15	yes
SYK_1	0.207225044368	0.183085979131	0.901009516461	blosum	0.1	15	yes
PIK3R1_1	0.351250327576	0.447368273304	0.810741292931	blosum	0.1	15	yes
BTK	0.237123989546	0.233474425242	0.799560213158	blosum	0.1	15	yes
HSH2D	0.296869533588	0.440343271063	0.800755818947	blosum	0.1	15	yes
FGR	0.337253636278	0.475972012779	0.839933719967	blosum	0.1	15	yes
SH2D1A	0.448423421128	0.465431085541	0.850349572054	blosum	0.1	15	yes
GRB10	0.366171779283	0.395769347659	0.925335287942	blosum	0.1	15	yes
PTPN11_12	0.263689566176	0.428222538363	0.832242549171	blosum	0.1	15	yes
PTPN11_2	0.324858805662	0.338350835448	0.899974286449	blosum	0.1	15	yes
PIK3R1_12	0.70094312984	0.656490917861	0.852969174478	blosum	0.1	15	yes
MIST	0.215154095949	0.121213346377	0.941559554413	blosum	0.1	15	yes
CRK	0.539052502794	0.440788685347	0.925989583333	blosum	0.1	15	yes
SHIP2	0.373976818158	0.547556957863	0.84327144502	blosum	0.1	15	yes
SH3BP2	0.130962005667	0.182436107865	0.873265673176	blosum	0.1	15	yes
DAPP1	0.17851074095	0.150475172068	0.768748393729	blosum	0.1	15	yes
SHC1	0.316436332846	0.49245417785	0.805801980498	blosum	0.1	15	yes
VAV2	0.297474562758	0.303187340498	0.957561728395	blosum	0.1	15	yes
SRMS	0.317392489211	0.517207761753	0.800641674315	blosum	0.1	15	yes
GRB14	0.40423851736	0.415867109134	0.799618267911	blosum	0.1	15	yes
TNS1	0.383975646916	0.563167984929	0.857078582848	blosum	0.1	15	yes
PTPN11_1	0.304644670762	0.439510193168	0.8668384437	blosum	0.1	15	yes
GRB2	0.572975851077	0.429098080145	0.932253441075	blosum	0.1	15	yes
BKS	0.261781062174	0.199847419404	0.917457864135	blosum	0.1	15	yes
VAV1	0.27708098225	0.223586748655	0.894657630374	blosum	0.1	15	yes
PTPN6_12	0.283394574328	0.390814736627	0.849716932578	blosum	0.1	15	yes
SOCS7	0.294775781643	0.350573368583	0.798080834496	blosum	0.1	15	yes
ABL2	0.484352524126	0.506251524669	0.7514623247	blosum	0.1	15	yes
MATK	0.316278295026	0.474208212888	0.836574236574	blosum	0.1	15	yes
FER	0.376966722155	0.392338732023	0.888843992212	blosum	0.1	15	yes
BLK	0.510135634519	0.534006665908	0.864479472141	blosum	0.1	15	yes
SRC	0.298768125086	0.442442274265	0.829763752371	blosum	0.1	15	yes
SYK_2	0.283045175499	0.318532478017	0.945958945289	blosum	0.1	15	yes
SH2D2A	0.444522762578	0.51429442459	0.881085098476	blosum	0.1	15	yes
ABL1	0.515631289758	0.529842856719	0.839918088142	blosum	0.1	15	yes
SHD	0.490684821554	0.489889607086	0.845407404226	blosum	0.1	15	yes
SH2B	0.453782566762	0.449139567059	0.916896941258	blosum	0.1	15	yes
FES	0.371032461016	0.288998766654	0.885172798216	blosum	0.1	15	yes
ZAP70_12	0.296335560728	0.417604294356	0.784861792818	blosum	0.1	15	yes
BMX	0.335853564165	0.410587920679	0.923447085185	blosum	0.1	15	yes
BRK	0.558441661069	0.534006350965	0.900576910669	blosum	0.1	15	yes
CBLB	0.213137193586	0.373755009461	0.793883859572	blosum	0.1	15	yes
BRDG1	0.487899372983	0.353822632026	0.919341348667	blosum	0.1	15	yes
TNS3	0.262982898958	0.351393794605	0.874254714544	blosum	0.1	15	yes
PLCG2_12	0.406076671243	0.434328052737	0.885324986847	blosum	0.1	15	yes
TENC1	0.419939380434	0.390333853343	0.905065145409	blosum	0.1	15	yes
FYN	0.616788429892	0.603120509757	0.905878723526	blosum	0.1	15	yes
SH2D1B	0.611732642761	0.61235244726	0.87951998542	blosum	0.1	15	yes
NCK2	0.450606051233	0.46237412894	0.902586975229	blosum	0.1	15	yes
GADS	0.743849377669	0.371397349973	0.951766779804	blosum	0.1	15	yes
TNS4	0.277926841184	0.384850266551	0.942945258288	blosum	0.1	15	yes
SHIP1	0.292550742157	0.509656943716	0.876649528706	blosum	0.1	15	yes
PLCG1_12	0.454946214188	0.454558606201	0.841329615079	blosum	0.1	15	yes
SHC3	0.362915457743	0.5552161589	0.849575180227	blosum	0.1	15	yes
PIK3R3_12	0.64127638706	0.644536420334	0.820618453731	blosum	0.1	15	yes
SLP76	0.312308985764	0.308892871379	0.966724537037	blosum	0.1	15	yes
TXK	0.338985414307	0.455282006875	0.876145136387	blosum	0.1	15	yes
SH2D3A	0.275975444498	0.400318383933	0.910118130457	blosum	0.1	15	yes
APS	0.414838139853	0.504903575481	0.8857802381	blosum	0.1	15	yes
SHC4	0.364766684809	0.29622015756	0.884353301817	blosum	0.1	15	yes
