SH2	PCC	spearman	AUC	data_encoding	learning_rate	hidden_nodes	nested
ITK	0.443593232275	0.391891920412	0.866881911712	blosum	0.05	20	no
LYN	0.384463715087	0.493649017845	0.852426090882	blosum	0.05	20	no
BCAR3	0.361491356469	0.426338326308	0.88079479686	blosum	0.05	20	no
CSK	0.44574117375	0.390588571885	0.936242219917	blosum	0.05	20	no
YES	0.362009218246	0.456621621039	0.833037886688	blosum	0.05	20	no
HCK	0.53226563075	0.568073439909	0.864306656355	blosum	0.05	20	no
FRK	0.544516039929	0.584871004061	0.866809973884	blosum	0.05	20	no
CBL	0.207351342736	0.250876606945	0.769290199885	blosum	0.05	20	no
CRKL	0.598754774164	0.482669702167	0.939071907008	blosum	0.05	20	no
SH2D3C	0.290445476975	0.407627888533	0.870600366984	blosum	0.05	20	no
RASA1_12	0.403074485204	0.462458015686	0.875966325996	blosum	0.05	20	no
SYK_1	0.176788179671	0.16888479701	0.849408436214	blosum	0.05	20	no
PIK3R1_1	0.352277027577	0.438724117716	0.806560690924	blosum	0.05	20	no
BTK	0.213954279028	0.20776070845	0.731908318311	blosum	0.05	20	no
HSH2D	0.282653148758	0.423304868147	0.769286266426	blosum	0.05	20	no
FGR	0.334488665975	0.468749185801	0.829233176839	blosum	0.05	20	no
SH2D1A	0.449207086479	0.458567794338	0.845991324973	blosum	0.05	20	no
GRB10	0.359339483176	0.392028007836	0.91214168268	blosum	0.05	20	no
PTPN11_12	0.288841910438	0.434789703721	0.841278021129	blosum	0.05	20	no
PTPN11_2	0.317684432353	0.331633029458	0.892590823936	blosum	0.05	20	no
PIK3R1_12	0.687802376335	0.632672422763	0.843847982896	blosum	0.05	20	no
MIST	0.213220852211	0.111267768819	0.911439588689	blosum	0.05	20	no
CRK	0.544508981355	0.466989520573	0.930438596491	blosum	0.05	20	no
SHIP2	0.362525321946	0.532436643345	0.82861974669	blosum	0.05	20	no
SH3BP2	0.0878132981243	0.134546423616	0.810187564234	blosum	0.05	20	no
DAPP1	0.166639949552	0.140990585932	0.740580827551	blosum	0.05	20	no
SHC1	0.312706696722	0.491091457049	0.808728750588	blosum	0.05	20	no
VAV2	0.30060976032	0.279628489585	0.96601723251	blosum	0.05	20	no
SRMS	0.33436730064	0.516044946874	0.818919194534	blosum	0.05	20	no
GRB14	0.41454049613	0.42302535422	0.805693493498	blosum	0.05	20	no
TNS1	0.382119214238	0.556216436572	0.84716119583	blosum	0.05	20	no
PTPN11_1	0.306659773441	0.433796966031	0.854659452031	blosum	0.05	20	no
GRB2	0.570500753485	0.420624210842	0.930634838263	blosum	0.05	20	no
BKS	0.227844391118	0.175352826366	0.884797968647	blosum	0.05	20	no
VAV1	0.286910666072	0.218567501567	0.870983527848	blosum	0.05	20	no
PTPN6_12	0.276739755487	0.387668580964	0.844647452393	blosum	0.05	20	no
SOCS7	0.308698926248	0.329223326273	0.806518043933	blosum	0.05	20	no
ABL2	0.443280482253	0.460754988435	0.730601607221	blosum	0.05	20	no
MATK	0.30848874666	0.462898574251	0.837650637651	blosum	0.05	20	no
FER	0.33644481715	0.362334846805	0.892186753848	blosum	0.05	20	no
BLK	0.517823033351	0.547595980246	0.866011424731	blosum	0.05	20	no
SRC	0.304531880829	0.436271743833	0.843412657355	blosum	0.05	20	no
SYK_2	0.243089718595	0.309672167372	0.888877437087	blosum	0.05	20	no
SH2D2A	0.423939143602	0.490087327797	0.873624331818	blosum	0.05	20	no
ABL1	0.51312982718	0.532667199439	0.839586955101	blosum	0.05	20	no
SHD	0.487662942822	0.482892849837	0.844058438305	blosum	0.05	20	no
SH2B	0.447459635231	0.443465646097	0.914624608968	blosum	0.05	20	no
FES	0.342337367226	0.278153734637	0.875253694652	blosum	0.05	20	no
ZAP70_12	0.273745608591	0.387261185692	0.73864117799	blosum	0.05	20	no
BMX	0.305864701786	0.369198010933	0.937112000882	blosum	0.05	20	no
BRK	0.557703408345	0.540524974849	0.894006848172	blosum	0.05	20	no
CBLB	0.227160039368	0.373064329422	0.862754839185	blosum	0.05	20	no
BRDG1	0.494046222811	0.350864726098	0.920024643417	blosum	0.05	20	no
TNS3	0.264030216255	0.342812917801	0.86972875226	blosum	0.05	20	no
PLCG2_12	0.402602992629	0.433473159593	0.878521173858	blosum	0.05	20	no
TENC1	0.423939876155	0.385986241356	0.903213324268	blosum	0.05	20	no
FYN	0.61821672354	0.602118044657	0.908675553387	blosum	0.05	20	no
SH2D1B	0.622898689592	0.599597495054	0.878154031594	blosum	0.05	20	no
NCK2	0.45390292087	0.466866221272	0.906912686705	blosum	0.05	20	no
GADS	0.737098079095	0.375693438088	0.956193595917	blosum	0.05	20	no
TNS4	0.260910874665	0.358595468384	0.931637111282	blosum	0.05	20	no
SHIP1	0.275960151148	0.50639060121	0.885175664096	blosum	0.05	20	no
PLCG1_12	0.462986823196	0.439404015245	0.837502798868	blosum	0.05	20	no
SHC3	0.351381540477	0.542753586101	0.854552866461	blosum	0.05	20	no
PIK3R3_12	0.63344280429	0.63533702284	0.816794173502	blosum	0.05	20	no
SLP76	0.28929348628	0.295015613022	0.941775977366	blosum	0.05	20	no
TXK	0.317819457605	0.434551475624	0.871641791045	blosum	0.05	20	no
SH2D3A	0.242343635251	0.351189327017	0.815742167437	blosum	0.05	20	no
APS	0.411502767366	0.504364306521	0.883279543463	blosum	0.05	20	no
SHC4	0.353795775134	0.291474890312	0.873171812675	blosum	0.05	20	no
