SH2	PCC	spearman	AUC	data_encoding	learning_rate	hidden_nodes	nested
ITK	0.433795080225	0.399523556339	0.866986966235	blosum	0.05	15	no
LYN	0.382700145249	0.495690587012	0.851937435553	blosum	0.05	15	no
BCAR3	0.366001644302	0.437040952382	0.869534697152	blosum	0.05	15	no
CSK	0.453243371306	0.411549553855	0.932592064315	blosum	0.05	15	no
YES	0.356089623739	0.459229403017	0.828393291623	blosum	0.05	15	no
HCK	0.519808475222	0.5609230429	0.854918357	blosum	0.05	15	no
FRK	0.541580988562	0.580284149834	0.865781738389	blosum	0.05	15	no
CBL	0.216273904496	0.272657383082	0.76179203233	blosum	0.05	15	no
CRKL	0.591844973042	0.475507904659	0.939973242288	blosum	0.05	15	no
SH2D3C	0.295566484914	0.425217972461	0.856921887084	blosum	0.05	15	no
RASA1_12	0.402994994578	0.458741377353	0.870748165618	blosum	0.05	15	no
SYK_1	0.19253745768	0.182148221408	0.863972479424	blosum	0.05	15	no
PIK3R1_1	0.36043378587	0.445920877098	0.816066943359	blosum	0.05	15	no
BTK	0.221415230778	0.225200712334	0.751698726203	blosum	0.05	15	no
HSH2D	0.282608491901	0.427631640076	0.760834836382	blosum	0.05	15	no
FGR	0.34108599582	0.474925800297	0.830278928473	blosum	0.05	15	no
SH2D1A	0.444556506246	0.449388044711	0.841805168524	blosum	0.05	15	no
GRB10	0.361187655315	0.393802531942	0.909566354326	blosum	0.05	15	no
PTPN11_12	0.274275332647	0.435221822389	0.793798849094	blosum	0.05	15	no
PTPN11_2	0.329850558784	0.33776613378	0.853689894574	blosum	0.05	15	no
PIK3R1_12	0.691635259197	0.640037961673	0.84706195963	blosum	0.05	15	no
MIST	0.187520942448	0.115700826903	0.896572407883	blosum	0.05	15	no
CRK	0.544451908191	0.461752116863	0.930249451754	blosum	0.05	15	no
SHIP2	0.365487418378	0.53836506793	0.836168681635	blosum	0.05	15	no
SH3BP2	0.155393155514	0.176145880653	0.868512332991	blosum	0.05	15	no
DAPP1	0.183655439353	0.165214454127	0.772654844513	blosum	0.05	15	no
SHC1	0.328244636741	0.499301033459	0.825955749663	blosum	0.05	15	no
VAV2	0.28469054757	0.300375788024	0.942740483539	blosum	0.05	15	no
SRMS	0.327737089559	0.524543151188	0.798602122703	blosum	0.05	15	no
GRB14	0.419251125744	0.426695106338	0.803445335153	blosum	0.05	15	no
TNS1	0.38855190958	0.561333755663	0.868422312206	blosum	0.05	15	no
PTPN11_1	0.299975217795	0.43628008311	0.846654642274	blosum	0.05	15	no
GRB2	0.573895217715	0.427485656884	0.932500556009	blosum	0.05	15	no
BKS	0.23572866715	0.176151996231	0.900161919482	blosum	0.05	15	no
VAV1	0.306436464198	0.237529802521	0.903336903531	blosum	0.05	15	no
PTPN6_12	0.280878565608	0.399079203	0.839861039629	blosum	0.05	15	no
SOCS7	0.296888536539	0.33194567793	0.792901557415	blosum	0.05	15	no
ABL2	0.462390886256	0.476170953531	0.739730511321	blosum	0.05	15	no
MATK	0.308405631738	0.467695601912	0.822183222183	blosum	0.05	15	no
FER	0.362479683395	0.385569904058	0.911875987217	blosum	0.05	15	no
BLK	0.513668155917	0.538516614897	0.861685911535	blosum	0.05	15	no
SRC	0.30014598406	0.440579993826	0.831574409381	blosum	0.05	15	no
SYK_2	0.263000055691	0.310765211793	0.932783646826	blosum	0.05	15	no
SH2D2A	0.433180023425	0.498011282222	0.889574936398	blosum	0.05	15	no
ABL1	0.516518440834	0.528948571736	0.841595538418	blosum	0.05	15	no
SHD	0.486350698901	0.485853845825	0.842820693247	blosum	0.05	15	no
SH2B	0.444691731464	0.448509888457	0.914376955162	blosum	0.05	15	no
FES	0.362471149704	0.286913439583	0.892576394249	blosum	0.05	15	no
ZAP70_12	0.27715840019	0.399644396934	0.758057349522	blosum	0.05	15	no
BMX	0.326832604016	0.381972739525	0.968776402307	blosum	0.05	15	no
BRK	0.561778127448	0.53841935353	0.891608430505	blosum	0.05	15	no
CBLB	0.22832144216	0.372762943158	0.810903805108	blosum	0.05	15	no
BRDG1	0.494176670199	0.352230817275	0.92453886939	blosum	0.05	15	no
TNS3	0.26537214595	0.351234624025	0.872239731336	blosum	0.05	15	no
PLCG2_12	0.406598327936	0.428390042117	0.885360655592	blosum	0.05	15	no
TENC1	0.42404081313	0.394452537228	0.901897702083	blosum	0.05	15	no
FYN	0.614227668252	0.596478947679	0.902955145497	blosum	0.05	15	no
SH2D1B	0.619344271381	0.595888474256	0.877794949941	blosum	0.05	15	no
NCK2	0.454351104476	0.471937010665	0.902802108304	blosum	0.05	15	no
GADS	0.738910416097	0.36281683741	0.955410845371	blosum	0.05	15	no
TNS4	0.28633008313	0.378642896457	0.932099717296	blosum	0.05	15	no
SHIP1	0.276023217402	0.506465355172	0.842502142245	blosum	0.05	15	no
PLCG1_12	0.462236270216	0.449933102864	0.846065639397	blosum	0.05	15	no
SHC3	0.356420666003	0.556347484106	0.857878475798	blosum	0.05	15	no
PIK3R3_12	0.632728710854	0.63544314229	0.81803370218	blosum	0.05	15	no
SLP76	0.282543781077	0.295071676078	0.933609825103	blosum	0.05	15	no
TXK	0.324112455921	0.437838157147	0.850540401441	blosum	0.05	15	no
SH2D3A	0.255997320924	0.351765530473	0.890344119158	blosum	0.05	15	no
APS	0.409492987417	0.498055542391	0.879569111078	blosum	0.05	15	no
SHC4	0.363852100208	0.298440947094	0.887594179347	blosum	0.05	15	no
