SH2	PCC	spearman	AUC	data_encoding	learning_rate	hidden_nodes	nested
ABL1	0.314646381252	0.344268636241	0.719925930767	blosum	0.2	15	no
ABL2	0.368748364034	0.380405316986	0.693370643713	blosum	0.2	15	no
APS	0.335699389783	0.319744579764	0.853211362131	blosum	0.2	15	no
BCAR3	-0.0115723859961	-0.0171312340994	0.482579794854	blosum	0.2	15	no
BKS	0.0679019671397	0.0620931165572	0.722823286965	blosum	0.2	15	no
BLK	0.30059007953	0.319378062841	0.75519764174	blosum	0.2	15	no
BMX	0.328547649882	0.376176792544	0.868089483158	blosum	0.2	15	no
BRDG1	0.0632330238428	0.105011429341	0.593055036965	blosum	0.2	15	no
BRK	0.118946295703	0.206957183983	0.698718248221	blosum	0.2	15	no
BTK	0.212420940067	0.15598772648	0.896392559282	blosum	0.2	15	no
CBL	0.213527416597	0.262029935373	0.698250757741	blosum	0.2	15	no
CBLB	0.208489577915	0.37965176103	0.800526238316	blosum	0.2	15	no
CRK	0.522721070105	0.490456598442	0.921817434211	blosum	0.2	15	no
CRKL	0.556448203822	0.494879572306	0.927122155907	blosum	0.2	15	no
CSK	0.201373183713	0.276355428366	0.760107624481	blosum	0.2	15	no
DAPP1	0.0787412533577	0.0877293368332	0.570341814444	blosum	0.2	15	no
FER	0.423592154631	0.378939496286	0.953348271682	blosum	0.2	15	no
FES	0.409472567879	0.336943905983	0.946259611811	blosum	0.2	15	no
FGR	0.11079668161	0.236840531785	0.555739666759	blosum	0.2	15	no
FRK	0.457574205555	0.494894847729	0.827486175324	blosum	0.2	15	no
FYN	0.258176680642	0.3347381223	0.742447722359	blosum	0.2	15	no
GADS	0.632074063932	0.325255675459	0.938896782172	blosum	0.2	15	no
GRB10	0.29497016805	0.218934642553	0.877077596624	blosum	0.2	15	no
GRB14	0.301683416407	0.346377757595	0.763962866402	blosum	0.2	15	no
GRB2	0.557284138527	0.318047947456	0.948093508291	blosum	0.2	15	no
HCK	0.332161163127	0.37229977803	0.760537880096	blosum	0.2	15	no
HSH2D	0.234651147264	0.254466360214	0.80097912909	blosum	0.2	15	no
ITK	0.293960006387	0.342102709161	0.867106028029	blosum	0.2	15	no
LYN	0.277150419282	0.485924910419	0.756028474526	blosum	0.2	15	no
MATK	0.137141927093	0.312646096643	0.696618696619	blosum	0.2	15	no
MIST	0.282756909169	0.122981567843	0.964095972579	blosum	0.2	15	no
NCK2	0.25370088262	0.288081201586	0.78634980638	blosum	0.2	15	no
PIK3R1_1	0.245515773888	0.325161492126	0.680504627204	blosum	0.2	15	no
PTPN11_1	0.144209510645	0.147219072202	0.735136992184	blosum	0.2	15	no
PTPN11_2	0.115075552106	0.0870864974248	0.655218014179	blosum	0.2	15	no
SH2B	0.363564986046	0.401204029788	0.849604622871	blosum	0.2	15	no
SH2D1A	0.134921089035	0.218753094194	0.632619675557	blosum	0.2	15	no
SH2D1B	0.42450855244	0.446784757856	0.802347203088	blosum	0.2	15	no
SH2D2A	0.244256055621	0.31951838498	0.727324700569	blosum	0.2	15	no
SH2D3A	0.100979103923	0.0749813844639	0.586286594761	blosum	0.2	15	no
SH2D3C	0.0239636781227	0.113127650602	0.44033483463	blosum	0.2	15	no
SH3BP2	0.0237042603839	0.104301878337	0.807297019527	blosum	0.2	15	no
SHC1	0.264448275259	0.369876200488	0.781508272296	blosum	0.2	15	no
SHC3	0.257794331117	0.398175550118	0.747082046001	blosum	0.2	15	no
SHC4	0.2556499915	0.255906888501	0.843320652977	blosum	0.2	15	no
SHD	0.135969049471	0.144122493107	0.642399595641	blosum	0.2	15	no
SHIP1	0.0177813441653	0.096071713697	0.490402742074	blosum	0.2	15	no
SHIP2	0.256162078109	0.395723979339	0.746020437536	blosum	0.2	15	no
SLP76	0.110548767382	0.165694131661	0.75356867284	blosum	0.2	15	no
SOCS7	0.0731594680342	0.181107115733	0.51814562994	blosum	0.2	15	no
SRC	0.34200847016	0.402074658559	0.859717192619	blosum	0.2	15	no
SRMS	0.147445722384	0.348350265816	0.670526125872	blosum	0.2	15	no
SYK_1	0.0572621498186	0.0610827040353	0.701324588477	blosum	0.2	15	no
SYK_2	0.0983219933212	0.150116773682	0.683277505797	blosum	0.2	15	no
TENC1	0.158116307468	0.234761191372	0.718351823906	blosum	0.2	15	no
TNS1	0.24443395363	0.312439678064	0.796329800982	blosum	0.2	15	no
TNS3	0.21084416452	0.310119053771	0.759710669078	blosum	0.2	15	no
TNS4	0.152358189875	0.284784814242	0.733179131329	blosum	0.2	15	no
TXK	0.266979972236	0.371609209209	0.658054554812	blosum	0.2	15	no
VAV1	0.279340941589	0.146440901014	0.854289776924	blosum	0.2	15	no
VAV2	0.280403355278	0.406617478141	0.953510802469	blosum	0.2	15	no
YES	0.175239857018	0.358297198036	0.599461244352	blosum	0.2	15	no
