SH2	PCC	spearman	AUC	update	activation	data_encoding	dropout_dense	dropout_cnn	learning_rate	hidden_nodes	n_filters	filter_sizes	separate	nested
FRK	0.497836503641	0.494960340178	0.830007090851	adam	rectify	blosum	0.0	0.0	0.0001	250	250	3 5 7	no	yes
DAPP1	0.178543073794	0.143465765434	0.882395271139	adam	rectify	blosum	0.0	0.0	0.0001	250	250	3 5 7	no	yes
SH2D1B	0.480561101892	0.508097514326	0.821752047803	adam	rectify	blosum	0.0	0.0	0.0001	250	250	3 5 7	no	yes
SH2D1A	0.35387042563	0.382527730508	0.803003914544	adam	rectify	blosum	0.0	0.0	0.0001	250	250	3 5 7	no	yes
APS	0.336370736281	0.297013196346	0.830397332592	adam	rectify	blosum	0.0	0.0	0.0001	250	250	3 5 7	no	yes
BKS	0.207278752181	0.193480041884	0.947725767278	adam	rectify	blosum	0.0	0.0	0.0001	250	250	3 5 7	no	yes
SYK_1	0.20740149596	0.158374919027	0.834104938272	adam	rectify	blosum	0.0	0.0	0.0001	250	250	3 5 7	no	yes
SYK_2	0.185631526794	0.198541279367	0.803950871768	adam	rectify	blosum	0.0	0.0	0.0001	250	250	3 5 7	no	yes
MIST	0.144237306448	0.0957837044394	0.802185089974	adam	rectify	blosum	0.0	0.0	0.0001	250	250	3 5 7	no	yes
NCK2	0.308396675949	0.333223949889	0.798743008175	adam	rectify	blosum	0.0	0.0	0.0001	250	250	3 5 7	no	yes
BLK	0.458694758064	0.458359641462	0.832835410557	adam	rectify	blosum	0.0	0.0	0.0001	250	250	3 5 7	no	yes
BTK	0.231103737346	0.153508626687	0.812278373185	adam	rectify	blosum	0.0	0.0	0.0001	250	250	3 5 7	no	yes
CSK	0.215569742891	0.306280250501	0.811307053942	adam	rectify	blosum	0.0	0.0	0.0001	250	250	3 5 7	no	yes
ITK	0.303572876465	0.299409466516	0.774153785815	adam	rectify	blosum	0.0	0.0	0.0001	250	250	3 5 7	no	yes
HCK	0.463890286973	0.486640344541	0.817017193079	adam	rectify	blosum	0.0	0.0	0.0001	250	250	3 5 7	no	yes
GRB14	0.324698056763	0.346380987703	0.726221745734	adam	rectify	blosum	0.0	0.0	0.0001	250	250	3 5 7	no	yes
GRB10	0.227003448136	0.16709554667	0.839893817231	adam	rectify	blosum	0.0	0.0	0.0001	250	250	3 5 7	no	yes
FYN	0.336334269041	0.37122877239	0.7772078096	adam	rectify	blosum	0.0	0.0	0.0001	250	250	3 5 7	no	yes
ABL2	0.412046930578	0.420794008939	0.713439315827	adam	rectify	blosum	0.0	0.0	0.0001	250	250	3 5 7	no	yes
ABL1	0.398378398772	0.427561232301	0.757341350239	adam	rectify	blosum	0.0	0.0	0.0001	250	250	3 5 7	no	yes
SHD	0.202744287407	0.184349267764	0.647894567026	adam	rectify	blosum	0.0	0.0	0.0001	250	250	3 5 7	no	yes
VAV1	0.266956787111	0.257815264613	0.840236741025	adam	rectify	blosum	0.0	0.0	0.0001	250	250	3 5 7	no	yes
TENC1	0.25930199512	0.301313798853	0.797576601825	adam	rectify	blosum	0.0	0.0	0.0001	250	250	3 5 7	no	yes
SHC4	0.250475558146	0.259453022005	0.819498818142	adam	rectify	blosum	0.0	0.0	0.0001	250	250	3 5 7	no	yes
SLP76	0.205483885495	0.239137416309	0.79414223251	adam	rectify	blosum	0.0	0.0	0.0001	250	250	3 5 7	no	yes
CRKL	0.524539057146	0.449842341731	0.905742048703	adam	rectify	blosum	0.0	0.0	0.0001	250	250	3 5 7	no	yes
BRK	0.304169652147	0.325631654576	0.78647630617	adam	rectify	blosum	0.0	0.0	0.0001	250	250	3 5 7	no	yes
CRK	0.508874179548	0.445298297629	0.90272752193	adam	rectify	blosum	0.0	0.0	0.0001	250	250	3 5 7	no	yes
SH2B	0.316960381132	0.393567669824	0.806495481404	adam	rectify	blosum	0.0	0.0	0.0001	250	250	3 5 7	no	yes
GADS	0.538233638653	0.334977158969	0.895149577709	adam	rectify	blosum	0.0	0.0	0.0001	250	250	3 5 7	no	yes
BRDG1	0.162788127972	0.16645136477	0.679306997237	adam	rectify	blosum	0.0	0.0	0.0001	250	250	3 5 7	no	yes
CBLB	0.178487049483	0.312130959337	0.698075366159	adam	rectify	blosum	0.0	0.0	0.0001	250	250	3 5 7	no	yes
LYN	0.308271078474	0.493848461289	0.771172648553	adam	rectify	blosum	0.0	0.0	0.0001	250	250	3 5 7	no	yes
SOCS7	0.160024898194	0.309578756864	0.672096553928	adam	rectify	blosum	0.0	0.0	0.0001	250	250	3 5 7	no	yes
TNS3	0.139802509747	0.215936383701	0.621276156032	adam	rectify	blosum	0.0	0.0	0.0001	250	250	3 5 7	no	yes
SRC	0.318196413001	0.469171384767	0.81439041214	adam	rectify	blosum	0.0	0.0	0.0001	250	250	3 5 7	no	yes
SH2D3A	0.15272892083	0.166166548487	0.614920390344	adam	rectify	blosum	0.0	0.0	0.0001	250	250	3 5 7	no	yes
BCAR3	0.110371294637	0.130497212377	0.664861612515	adam	rectify	blosum	0.0	0.0	0.0001	250	250	3 5 7	no	yes
YES	0.28868933006	0.475294240538	0.734137122002	adam	rectify	blosum	0.0	0.0	0.0001	250	250	3 5 7	no	yes
TNS4	0.218926867634	0.308313290738	0.875096376253	adam	rectify	blosum	0.0	0.0	0.0001	250	250	3 5 7	no	yes
SH2D3C	0.141416062871	0.278975367493	0.676660145884	adam	rectify	blosum	0.0	0.0	0.0001	250	250	3 5 7	no	yes
VAV2	0.310685739464	0.336032220067	0.968492798354	adam	rectify	blosum	0.0	0.0	0.0001	250	250	3 5 7	no	yes
TXK	0.249873321911	0.340993956174	0.719016984045	adam	rectify	blosum	0.0	0.0	0.0001	250	250	3 5 7	no	yes
SRMS	0.304587250106	0.495664681708	0.846610029887	adam	rectify	blosum	0.0	0.0	0.0001	250	250	3 5 7	no	yes
SH2D2A	0.214326761468	0.24999513487	0.694451590773	adam	rectify	blosum	0.0	0.0	0.0001	250	250	3 5 7	no	yes
HSH2D	0.224792915839	0.306160228873	0.851189555956	adam	rectify	blosum	0.0	0.0	0.0001	250	250	3 5 7	no	yes
TNS1	0.250817414427	0.356652914122	0.695270095632	adam	rectify	blosum	0.0	0.0	0.0001	250	250	3 5 7	no	yes
SHC1	0.267009580496	0.395775173329	0.792548109731	adam	rectify	blosum	0.0	0.0	0.0001	250	250	3 5 7	no	yes
GRB2	0.471263508379	0.373672311944	0.913009365656	adam	rectify	blosum	0.0	0.0	0.0001	250	250	3 5 7	no	yes
FGR	0.220027034808	0.355510717647	0.689334438001	adam	rectify	blosum	0.0	0.0	0.0001	250	250	3 5 7	no	yes
FER	0.325307521607	0.301128858397	0.959372589355	adam	rectify	blosum	0.0	0.0	0.0001	250	250	3 5 7	no	yes
FES	0.300003546637	0.24246909042	0.938627333276	adam	rectify	blosum	0.0	0.0	0.0001	250	250	3 5 7	no	yes
PTPN11_1	0.254149589741	0.354284205871	0.803864983252	adam	rectify	blosum	0.0	0.0	0.0001	250	250	3 5 7	no	yes
SH3BP2	0.119096139776	0.182202299214	0.777428057554	adam	rectify	blosum	0.0	0.0	0.0001	250	250	3 5 7	no	yes
MATK	0.259972400889	0.408332784457	0.864467064467	adam	rectify	blosum	0.0	0.0	0.0001	250	250	3 5 7	no	yes
BMX	0.254641648951	0.262610745053	0.939022150388	adam	rectify	blosum	0.0	0.0	0.0001	250	250	3 5 7	no	yes
SHIP2	0.241952967336	0.391959225551	0.740205814623	adam	rectify	blosum	0.0	0.0	0.0001	250	250	3 5 7	no	yes
SHIP1	0.188456115285	0.370056060815	0.790274207369	adam	rectify	blosum	0.0	0.0	0.0001	250	250	3 5 7	no	yes
SHC3	0.263475566084	0.333337915531	0.815203398558	adam	rectify	blosum	0.0	0.0	0.0001	250	250	3 5 7	no	yes
CBL	0.181994225419	0.208012291403	0.734681748846	adam	rectify	blosum	0.0	0.0	0.0001	250	250	3 5 7	no	yes
PIK3R1_1	0.280284806969	0.350832746397	0.689906784328	adam	rectify	blosum	0.0	0.0	0.0001	250	250	3 5 7	no	yes
PTPN11_2	0.17005847179	0.130630592132	0.772471806928	adam	rectify	blosum	0.0	0.0	0.0001	250	250	3 5 7	no	yes
