SH2	PCC	spearman	AUC	update	activation	data_encoding	dropout_dense	dropout_cnn	learning_rate	hidden_nodes	n_filters	filter_sizes	separate
VAV2	0.494285528219	0.406222062812	0.987782921811	adam	rectify	blosum	0.0	0.0	0.0001	1000	450	3 5 7	no
CRKL	0.595848252071	0.49644536268	0.946304308165	adam	rectify	blosum	0.0	0.0	0.0001	1000	450	3 5 7	no
SRC	0.297578847065	0.450660937752	0.827151232971	adam	rectify	blosum	0.0	0.0	0.0001	1000	450	3 5 7	no
SH2D1B	0.612461995879	0.599747217055	0.874449535946	adam	rectify	blosum	0.0	0.0	0.0001	1000	450	3 5 7	no
SH2D1A	0.449582705429	0.47017955141	0.87714180268	adam	rectify	blosum	0.0	0.0	0.0001	1000	450	3 5 7	no
SHIP2	0.331532466045	0.432741420249	0.829274611399	adam	rectify	blosum	0.0	0.0	0.0001	1000	450	3 5 7	no
PIK3R1_1	0.356495956326	0.438428369526	0.809461927979	adam	rectify	blosum	0.0	0.0	0.0001	1000	450	3 5 7	no
SH2D3A	0.308420702786	0.373755512804	0.926168464304	adam	rectify	blosum	0.0	0.0	0.0001	1000	450	3 5 7	no
SH3BP2	0.177341189203	0.190936259607	0.804727646454	adam	rectify	blosum	0.0	0.0	0.0001	1000	450	3 5 7	no
SH2D3C	0.337303218074	0.46672079879	0.920218976995	adam	rectify	blosum	0.0	0.0	0.0001	1000	450	3 5 7	no
ABL1	0.517486520308	0.523982013583	0.835333638324	adam	rectify	blosum	0.0	0.0	0.0001	1000	450	3 5 7	no
CRK	0.556815627185	0.487765583443	0.938303179825	adam	rectify	blosum	0.0	0.0	0.0001	1000	450	3 5 7	no
HSH2D	0.282285840546	0.333209254867	0.755664347677	adam	rectify	blosum	0.0	0.0	0.0001	1000	450	3 5 7	no
ABL2	0.464439992629	0.475223061464	0.74339451378	adam	rectify	blosum	0.0	0.0	0.0001	1000	450	3 5 7	no
TXK	0.290258663951	0.399311916177	0.819454451879	adam	rectify	blosum	0.0	0.0	0.0001	1000	450	3 5 7	no
PTPN11_1	0.357394207869	0.452058231901	0.877059177188	adam	rectify	blosum	0.0	0.0	0.0001	1000	450	3 5 7	no
PTPN11_2	0.333055058706	0.316552898741	0.889284795945	adam	rectify	blosum	0.0	0.0	0.0001	1000	450	3 5 7	no
FYN	0.611815726153	0.581554889965	0.90641800111	adam	rectify	blosum	0.0	0.0	0.0001	1000	450	3 5 7	no
SYK_2	0.479781738262	0.359535446349	0.915228034012	adam	rectify	blosum	0.0	0.0	0.0001	1000	450	3 5 7	no
SYK_1	0.326276703739	0.193247388238	0.912101337449	adam	rectify	blosum	0.0	0.0	0.0001	1000	450	3 5 7	no
SRMS	0.333071429756	0.507014701024	0.84592756454	adam	rectify	blosum	0.0	0.0	0.0001	1000	450	3 5 7	no
BKS	0.416010150419	0.158448204163	0.907301096636	adam	rectify	blosum	0.0	0.0	0.0001	1000	450	3 5 7	no
TNS3	0.282621760257	0.349652070713	0.889289589253	adam	rectify	blosum	0.0	0.0	0.0001	1000	450	3 5 7	no
LYN	0.374558430185	0.474162528285	0.837410292406	adam	rectify	blosum	0.0	0.0	0.0001	1000	450	3 5 7	no
FGR	0.323317703751	0.429265462263	0.820476848016	adam	rectify	blosum	0.0	0.0	0.0001	1000	450	3 5 7	no
TNS4	0.36760753295	0.415423508993	0.982369570804	adam	rectify	blosum	0.0	0.0	0.0001	1000	450	3 5 7	no
SHC4	0.386928459361	0.283677128992	0.903909366228	adam	rectify	blosum	0.0	0.0	0.0001	1000	450	3 5 7	no
CBLB	0.247243786768	0.37340600743	0.790093471701	adam	rectify	blosum	0.0	0.0	0.0001	1000	450	3 5 7	no
SHC1	0.378111554637	0.507546096684	0.852008552841	adam	rectify	blosum	0.0	0.0	0.0001	1000	450	3 5 7	no
CSK	0.559309031133	0.447376102961	0.951919087137	adam	rectify	blosum	0.0	0.0	0.0001	1000	450	3 5 7	no
SHC3	0.381784888277	0.535145945098	0.870537246825	adam	rectify	blosum	0.0	0.0	0.0001	1000	450	3 5 7	no
FRK	0.54522776963	0.550037033997	0.862807554799	adam	rectify	blosum	0.0	0.0	0.0001	1000	450	3 5 7	no
SH2D2A	0.444442181461	0.489112151187	0.93408226853	adam	rectify	blosum	0.0	0.0	0.0001	1000	450	3 5 7	no
SHD	0.474517465286	0.448427968791	0.825223570454	adam	rectify	blosum	0.0	0.0	0.0001	1000	450	3 5 7	no
FES	0.439425228578	0.355515477069	0.967012548952	adam	rectify	blosum	0.0	0.0	0.0001	1000	450	3 5 7	no
BLK	0.532628979102	0.531025384521	0.866471163245	adam	rectify	blosum	0.0	0.0	0.0001	1000	450	3 5 7	no
SHIP1	0.261637925639	0.434831083575	0.730505569837	adam	rectify	blosum	0.0	0.0	0.0001	1000	450	3 5 7	no
FER	0.341040529493	0.339748480418	0.977702677883	adam	rectify	blosum	0.0	0.0	0.0001	1000	450	3 5 7	no
HCK	0.542020368868	0.554864517705	0.861654771015	adam	rectify	blosum	0.0	0.0	0.0001	1000	450	3 5 7	no
MIST	0.234848061401	0.0838669609082	0.87000856898	adam	rectify	blosum	0.0	0.0	0.0001	1000	450	3 5 7	no
TNS1	0.431371488048	0.547946450859	0.867953246604	adam	rectify	blosum	0.0	0.0	0.0001	1000	450	3 5 7	no
BCAR3	0.444670468446	0.442364880114	0.924288006418	adam	rectify	blosum	0.0	0.0	0.0001	1000	450	3 5 7	no
SH2B	0.480681390933	0.444271809509	0.928097844977	adam	rectify	blosum	0.0	0.0	0.0001	1000	450	3 5 7	no
SOCS7	0.310804888199	0.315573186716	0.804669339842	adam	rectify	blosum	0.0	0.0	0.0001	1000	450	3 5 7	no
ITK	0.505582198786	0.481036753896	0.94105040516	adam	rectify	blosum	0.0	0.0	0.0001	1000	450	3 5 7	no
NCK2	0.447764485274	0.472303091273	0.897573606245	adam	rectify	blosum	0.0	0.0	0.0001	1000	450	3 5 7	no
BMX	0.315712482348	0.395528747445	0.932483561694	adam	rectify	blosum	0.0	0.0	0.0001	1000	450	3 5 7	no
VAV1	0.44153771772	0.363675491404	0.953639754764	adam	rectify	blosum	0.0	0.0	0.0001	1000	450	3 5 7	no
APS	0.431236629053	0.495469305809	0.868685746041	adam	rectify	blosum	0.0	0.0	0.0001	1000	450	3 5 7	no
DAPP1	0.20692971165	0.154526888405	0.811719352352	adam	rectify	blosum	0.0	0.0	0.0001	1000	450	3 5 7	no
GRB14	0.423278425228	0.410163019615	0.803690618325	adam	rectify	blosum	0.0	0.0	0.0001	1000	450	3 5 7	no
CBL	0.27415887524	0.337848473585	0.823906971216	adam	rectify	blosum	0.0	0.0	0.0001	1000	450	3 5 7	no
MATK	0.308344650106	0.469663678378	0.824265824266	adam	rectify	blosum	0.0	0.0	0.0001	1000	450	3 5 7	no
TENC1	0.455418855554	0.407894045626	0.921665201793	adam	rectify	blosum	0.0	0.0	0.0001	1000	450	3 5 7	no
GRB2	0.595336905814	0.486167169187	0.954005733066	adam	rectify	blosum	0.0	0.0	0.0001	1000	450	3 5 7	no
BRK	0.557299060421	0.560560034381	0.911819215375	adam	rectify	blosum	0.0	0.0	0.0001	1000	450	3 5 7	no
GRB10	0.391926375808	0.392272634166	0.933219754749	adam	rectify	blosum	0.0	0.0	0.0001	1000	450	3 5 7	no
BRDG1	0.490322774709	0.336605668369	0.910917780599	adam	rectify	blosum	0.0	0.0	0.0001	1000	450	3 5 7	no
YES	0.361651173074	0.480668075053	0.810753388947	adam	rectify	blosum	0.0	0.0	0.0001	1000	450	3 5 7	no
SLP76	0.333694078807	0.324537491679	0.973347479424	adam	rectify	blosum	0.0	0.0	0.0001	1000	450	3 5 7	no
BTK	0.298630062796	0.278430462424	0.942788090097	adam	rectify	blosum	0.0	0.0	0.0001	1000	450	3 5 7	no
GADS	0.73464975401	0.38683854725	0.951494461547	adam	rectify	blosum	0.0	0.0	0.0001	1000	450	3 5 7	no
